<?xml version="1.0" encoding="UTF-8" standalone="no"?>
<!-- Created with Inkscape (http://www.inkscape.org/) -->

<svg
   xmlns:dc="http://purl.org/dc/elements/1.1/"
   xmlns:cc="http://creativecommons.org/ns#"
   xmlns:rdf="http://www.w3.org/1999/02/22-rdf-syntax-ns#"
   xmlns:svg="http://www.w3.org/2000/svg"
   xmlns="http://www.w3.org/2000/svg"
   xmlns:xlink="http://www.w3.org/1999/xlink"
   xmlns:sodipodi="http://sodipodi.sourceforge.net/DTD/sodipodi-0.dtd"
   xmlns:inkscape="http://www.inkscape.org/namespaces/inkscape"
   width="547.5"
   height="210"
   id="svg3784"
   version="1.1"
   inkscape:version="0.48.3.1 r9886"
   sodipodi:docname="438x168.svg"
   inkscape:export-filename="/home/albert/Escriptori/baners/438x168.png"
   inkscape:export-xdpi="72"
   inkscape:export-ydpi="72">
  <defs
     id="defs3786">
    <linearGradient
       id="linearGradient3696">
      <stop
         style="stop-color:#b6e235;stop-opacity:1;"
         offset="0"
         id="stop3698" />
      <stop
         style="stop-color:#36890a;stop-opacity:1;"
         offset="1"
         id="stop3700" />
    </linearGradient>
    <linearGradient
       id="linearGradient3980">
      <stop
         style="stop-color:#ffffff;stop-opacity:1;"
         offset="0"
         id="stop3982" />
      <stop
         style="stop-color:#ffffff;stop-opacity:0;"
         offset="1"
         id="stop3984" />
    </linearGradient>
    <linearGradient
       inkscape:collect="always"
       xlink:href="#linearGradient3980"
       id="linearGradient3050"
       gradientUnits="userSpaceOnUse"
       gradientTransform="matrix(1.1657565,0,0,3.5093203,0.84325359,-2641.4572)"
       x1="108.70062"
       y1="915.66998"
       x2="121.24387"
       y2="1023.9117" />
    <linearGradient
       inkscape:collect="always"
       xlink:href="#linearGradient3696"
       id="linearGradient3053"
       gradientUnits="userSpaceOnUse"
       gradientTransform="matrix(8.4718651,0,0,14.04197,-133.01925,-13725.765)"
       x1="28.149378"
       y1="1027.9307"
       x2="36.248955"
       y2="1054.2212" />
  </defs>
  <sodipodi:namedview
     id="base"
     pagecolor="#ffffff"
     bordercolor="#666666"
     borderopacity="1.0"
     inkscape:pageopacity="0.0"
     inkscape:pageshadow="2"
     inkscape:zoom="1.6014304"
     inkscape:cx="278.87768"
     inkscape:cy="97.492686"
     inkscape:document-units="pt"
     inkscape:current-layer="layer1"
     showgrid="true"
     units="pt"
     inkscape:window-width="1024"
     inkscape:window-height="713"
     inkscape:window-x="0"
     inkscape:window-y="27"
     inkscape:window-maximized="1">
    <inkscape:grid
       type="xygrid"
       id="grid3002"
       empspacing="5"
       visible="true"
       enabled="true"
       snapvisiblegridlinesonly="true" />
  </sodipodi:namedview>
  <metadata
     id="metadata3789">
    <rdf:RDF>
      <cc:Work
         rdf:about="">
        <dc:format>image/svg+xml</dc:format>
        <dc:type
           rdf:resource="http://purl.org/dc/dcmitype/StillImage" />
        <dc:title></dc:title>
      </cc:Work>
    </rdf:RDF>
  </metadata>
  <g
     inkscape:label="Layer 1"
     inkscape:groupmode="layer"
     id="layer1"
     transform="translate(0,-842.36218)">
    <rect
       style="fill:url(#linearGradient3053);fill-opacity:1;stroke:none"
       id="rect2992"
       width="545.5741"
       height="208.82333"
       x="0.84325361"
       y="842.6488" />
    <path
       style="fill:url(#linearGradient3050);fill-opacity:1;stroke:none"
       d="m 381.05193,842.81499 -379.625551,0 0,198.64161 c 0,0 34.263217,-75.09806 112.233241,-109.36657 90.99707,-39.99327 267.39231,-89.27504 267.39231,-89.27504 z"
       id="path3210"
       inkscape:connector-curvature="0"
       sodipodi:nodetypes="cccsc" />
    <rect
       style="fill:none;stroke:#505050;stroke-width:2.01242614;stroke-opacity:1"
       id="rect2992-7"
       width="545.5741"
       height="208.44107"
       x="0.84325361"
       y="843.03107" />
    <path
       style="fill:none;stroke:#acacac;stroke-width:2.03305483;stroke-opacity:0.82442747"
       d="m 5,1047.3622 c 179,0 358.00001,0 537,0 0,-66.66682 0,-133.33324 0,-200.00002 -178.99999,0 -358,0 -537,0 0,66.66678 0,133.3332 0,200.00002 z"
       id="rect2992-7-9"
       inkscape:connector-curvature="0" />
    <path
       inkscape:connector-curvature="0"
       id="path4190"
       style="fill:#ffffff;fill-opacity:1;stroke:#36890a;stroke-width:3.01984954;stroke-opacity:1"
       d="m 123.96382,927.06968 c 0,0 -2.19878,2.4093 -2.19878,2.4093 -3.91597,-11.5462 -11.18293,-19.32264 -20.51991,-24.09913 0,0 33.73318,-26.19396 33.73318,-26.19396 -9.04035,15.23464 -11.05541,37.22579 -11.01449,47.88379 z m 20.42301,-21.61511 c 0,0 -7.55301,1.08586 -11.72031,13.32745 -3.56748,10.46178 -6.68807,14.35869 -9.60317,17.57702 0,0 -41.549176,43.25466 -41.549176,43.25466 0,0 -7.132603,6.61349 -15.73555,9.05621 -11.811493,3.35723 -35.199731,7.14451 -42.464105,8.01251 -7.263071,0.87416 -2.310365,5.05808 5.443821,9.67688 7.753552,4.6177 8.909613,6.9025 24.394485,-1.4656 15.484222,-8.36878 30.313143,-0.6911 62.051765,-9.80326 31.73798,-9.11805 38.18718,-34.52093 37.60849,-53.17544 -0.57966,-18.65665 1.76896,-22.71609 3.6362,-24.29643 1.86697,-1.57621 8.85016,-3.74491 8.85016,-3.74491 0,0 -8.18383,-2.66147 -8.18383,-2.66147 0,0 -0.99197,-1.48533 -4.4338,-4.13525 -3.44323,-2.65334 -8.29498,-1.62984 -8.29498,-1.62984 z M 77.876302,973.3254 C 63.566045,954.3746 42.219856,947.97711 18.527425,951.95442 c 0,0 40.849441,-46.23978 40.849441,-46.23978 23.770681,-3.72634 50.558634,2.09309 57.872904,27.64832 0,0 -38.535739,41.10128 -38.535739,41.10128 0,0 -0.539698,-0.74507 -0.838703,-1.1417 z"
       inkscape:export-filename="/home/ivan/Desktop/wiki.png"
       inkscape:export-xdpi="72.031548"
       inkscape:export-ydpi="72.031548" />
    <text
       xml:space="preserve"
       style="font-size:51.64054871px;font-style:normal;font-variant:normal;font-weight:normal;font-stretch:normal;text-align:start;line-height:110.00000238%;letter-spacing:0px;word-spacing:0px;writing-mode:lr-tb;text-anchor:start;fill:#ffffff;fill-opacity:1;stroke:#36890a;stroke-width:1.51531005;stroke-opacity:0.676259;font-family:Yanone Kaffeesatz;-inkscape-font-specification:Yanone Kaffeesatz"
       x="344.52676"
       y="911.94421"
       id="text4040"
       sodipodi:linespacing="110%"><tspan
         sodipodi:role="line"
         id="tspan4042"
         x="344.52676"
         y="911.94421"
         style="text-align:center;line-height:110.00000238%;text-anchor:middle;stroke-width:1.51531005">Dia de la Llibertat</tspan><tspan
         sodipodi:role="line"
         x="344.52676"
         y="968.74884"
         style="text-align:center;line-height:110.00000238%;text-anchor:middle;stroke-width:1.51531005"
         id="tspan3013">dels Documents 2014</tspan></text>
    <text
       xml:space="preserve"
       style="font-size:31.72373009px;font-style:normal;font-variant:normal;font-weight:normal;font-stretch:normal;text-align:start;line-height:125%;letter-spacing:0px;word-spacing:0px;writing-mode:lr-tb;text-anchor:start;fill:#ffffff;fill-opacity:1;stroke:#36890a;stroke-width:2.26598048;stroke-opacity:0;font-family:Yanone Kaffeesatz;-inkscape-font-specification:Yanone Kaffeesatz"
       x="291.12674"
       y="1001.9871"
       id="text4044-1"
       sodipodi:linespacing="125%"><tspan
         sodipodi:role="line"
         id="tspan4046-8"
         x="291.12674"
         y="1001.9871"
         style="fill:#ffffff;stroke-width:2.26598048">26 de març</tspan></text>
    <text
       xml:space="preserve"
       style="font-size:20.5180912px;font-style:normal;font-variant:normal;font-weight:normal;font-stretch:normal;text-align:start;line-height:125%;letter-spacing:0px;word-spacing:0px;writing-mode:lr-tb;text-anchor:start;fill:#ffffff;fill-opacity:1;stroke:#36890a;stroke-width:1.46557808;stroke-opacity:0;font-family:Yanone Kaffeesatz;-inkscape-font-specification:Yanone Kaffeesatz"
       x="146.76889"
       y="1103.9973"
       id="text4044"
       sodipodi:linespacing="125%"
       transform="scale(1.0796414,0.92623346)"><tspan
         sodipodi:role="line"
         id="tspan4046"
         x="146.76889"
         y="1103.9973"
         style="font-size:20.5180912px;font-style:normal;font-variant:normal;font-weight:normal;font-stretch:normal;text-align:start;line-height:125%;writing-mode:lr-tb;text-anchor:start;fill:#ffffff;stroke-width:1.46557808;font-family:Yanone Kaffeesatz;-inkscape-font-specification:Yanone Kaffeesatz">vegeu per què és important a documentfreedom.org/ca</tspan></text>
  </g>
</svg>
