<?xml version="1.0" encoding="UTF-8" standalone="no"?>
<!-- Created with Inkscape (http://www.inkscape.org/) -->

<svg
   xmlns:dc="http://purl.org/dc/elements/1.1/"
   xmlns:cc="http://creativecommons.org/ns#"
   xmlns:rdf="http://www.w3.org/1999/02/22-rdf-syntax-ns#"
   xmlns:svg="http://www.w3.org/2000/svg"
   xmlns="http://www.w3.org/2000/svg"
   xmlns:xlink="http://www.w3.org/1999/xlink"
   xmlns:sodipodi="http://sodipodi.sourceforge.net/DTD/sodipodi-0.dtd"
   xmlns:inkscape="http://www.inkscape.org/namespaces/inkscape"
   width="585"
   height="75"
   id="svg3784"
   version="1.1"
   inkscape:version="0.48.3.1 r9886"
   sodipodi:docname="468x60.svg"
   inkscape:export-filename="/home/albert/Escriptori/baners/468x60.png"
   inkscape:export-xdpi="72"
   inkscape:export-ydpi="72">
  <defs
     id="defs3786">
    <linearGradient
       id="linearGradient3696">
      <stop
         style="stop-color:#b6e235;stop-opacity:1;"
         offset="0"
         id="stop3698" />
      <stop
         style="stop-color:#36890a;stop-opacity:1;"
         offset="1"
         id="stop3700" />
    </linearGradient>
    <linearGradient
       id="linearGradient3980">
      <stop
         style="stop-color:#ffffff;stop-opacity:1;"
         offset="0"
         id="stop3982" />
      <stop
         style="stop-color:#ffffff;stop-opacity:0;"
         offset="1"
         id="stop3984" />
    </linearGradient>
    <linearGradient
       inkscape:collect="always"
       xlink:href="#linearGradient3696"
       id="linearGradient3053"
       gradientUnits="userSpaceOnUse"
       gradientTransform="matrix(7.267268,0,0,4.0345981,-114.82887,-3193.4964)"
       x1="28.149378"
       y1="1027.9307"
       x2="36.248955"
       y2="1054.2212" />
    <linearGradient
       inkscape:collect="always"
       xlink:href="#linearGradient3980"
       id="linearGradient3055"
       gradientUnits="userSpaceOnUse"
       x1="108.70062"
       y1="915.66998"
       x2="121.24387"
       y2="1023.9117" />
  </defs>
  <sodipodi:namedview
     id="base"
     pagecolor="#ffffff"
     bordercolor="#666666"
     borderopacity="1.0"
     inkscape:pageopacity="0.0"
     inkscape:pageshadow="2"
     inkscape:zoom="1.145279"
     inkscape:cx="281.66161"
     inkscape:cy="42.776568"
     inkscape:document-units="pt"
     inkscape:current-layer="layer1"
     showgrid="true"
     units="pt"
     inkscape:window-width="1024"
     inkscape:window-height="713"
     inkscape:window-x="0"
     inkscape:window-y="27"
     inkscape:window-maximized="1"
     inkscape:snap-grids="true"
     inkscape:snap-bbox="false"
     inkscape:snap-page="true"
     inkscape:snap-bbox-midpoints="true">
    <inkscape:grid
       type="xygrid"
       id="grid3011"
       empspacing="5"
       visible="true"
       enabled="true"
       snapvisiblegridlinesonly="true" />
  </sodipodi:namedview>
  <metadata
     id="metadata3789">
    <rdf:RDF>
      <cc:Work
         rdf:about="">
        <dc:format>image/svg+xml</dc:format>
        <dc:type
           rdf:resource="http://purl.org/dc/dcmitype/StillImage" />
        <dc:title></dc:title>
      </cc:Work>
    </rdf:RDF>
  </metadata>
  <g
     inkscape:label="Layer 1"
     inkscape:groupmode="layer"
     id="layer1"
     transform="translate(0,-977.36218)">
    <g
       id="g3774"
       transform="matrix(1.2472936,0,0,1.2285803,0.64792006,-241.12947)">
      <rect
         y="992.36218"
         x="0"
         height="60"
         width="468"
         id="rect2992"
         style="fill:url(#linearGradient3053);fill-opacity:1;stroke:none" />
      <path
         sodipodi:nodetypes="cccsc"
         inkscape:connector-curvature="0"
         id="path3210"
         d="m 326.14758,992.86239 -325.647368,0 0,56.60401 c 0,0 29.3914,-21.3996 96.275026,-31.1646 78.058382,-11.3963 229.372342,-25.43941 229.372342,-25.43941 z"
         style="fill:url(#linearGradient3055);fill-opacity:1;stroke:none" />
      <rect
         y="992.36218"
         x="0"
         height="60"
         width="468"
         id="rect2992-7"
         style="fill:none;stroke:#505050;stroke-opacity:1" />
      <path
         inkscape:connector-curvature="0"
         id="rect2992-7-9"
         d="m 2,1050.375 c 154.66667,0 309.33333,0 464,0 0,-18.6667 0,-37.3333 0,-56 -154.66667,0 -309.33333,0 -464,0 0,18.6667 0,37.3333 0,56 z"
         style="fill:none;stroke:#acacac;stroke-opacity:0.82442747" />
    </g>
    <path
       inkscape:connector-curvature="0"
       id="path4190"
       style="fill:#ffffff;fill-opacity:1;stroke:#36890a;stroke-width:1.13336015;stroke-opacity:1"
       d="m 61.263183,1008.0686 c 0,0 -0.825212,0.9042 -0.825212,0.9042 -1.469681,-4.3333 -4.196999,-7.2518 -7.701194,-9.04445 0,0 12.660175,-9.83069 12.660175,-9.83069 -3.392873,5.71762 -4.149126,13.97094 -4.133769,17.97094 z m 7.664821,-8.11221 c 0,0 -2.834667,0.40751 -4.398669,5.00181 -1.338884,3.9264 -2.510053,5.3889 -3.604101,6.5968 0,0 -15.59356,16.2336 -15.59356,16.2336 0,0 -2.676884,2.482 -5.9056,3.3988 -4.432899,1.26 -13.210592,2.6814 -15.936936,3.0072 -2.725856,0.3281 -0.867088,1.8983 2.043087,3.6317 2.909935,1.7331 3.343809,2.5906 9.155338,-0.55 5.811282,-3.1408 11.376625,-0.2593 23.28824,-3.6792 11.911381,-3.4221 14.331785,-12.9559 14.114601,-19.957 -0.217545,-7.0019 0.663896,-8.5254 1.364686,-9.1185 0.700676,-0.5916 3.32149,-1.4055 3.32149,-1.4055 0,0 -3.071417,-0.9989 -3.071417,-0.9989 0,0 -0.372296,-0.5574 -1.664022,-1.5519 -1.292261,-0.99584 -3.113137,-0.61171 -3.113137,-0.61171 z m -24.961633,25.47211 c -5.370688,-7.1123 -13.38199,-9.5133 -22.273847,-8.0205 0,0 15.330941,-17.354 15.330941,-17.354 8.921221,-1.39852 18.97484,0.7855 21.719907,10.3765 0,0 -14.462594,15.4255 -14.462594,15.4255 0,0 -0.202555,-0.2797 -0.31477,-0.4285 z"
       inkscape:export-filename="/home/ivan/Desktop/wiki.png"
       inkscape:export-xdpi="72.031548"
       inkscape:export-ydpi="72.031548" />
    <text
       xml:space="preserve"
       style="font-size:37.38372803px;font-style:normal;font-variant:normal;font-weight:normal;font-stretch:normal;text-align:start;line-height:125%;letter-spacing:0px;word-spacing:0px;writing-mode:lr-tb;text-anchor:start;fill:#ffffff;fill-opacity:1;stroke:#36890a;stroke-width:1.09696627;stroke-opacity:0.676259;font-family:Yanone Kaffeesatz;-inkscape-font-specification:Yanone Kaffeesatz"
       x="101.68036"
       y="1018.6311"
       id="text4040"
       sodipodi:linespacing="125%"><tspan
         sodipodi:role="line"
         id="tspan4042"
         x="101.68036"
         y="1018.6311"
         style="stroke-width:1.09696627">Dia de la Llibertat dels Documents 2014</tspan></text>
    <text
       xml:space="preserve"
       style="font-size:14.94471931px;font-style:normal;font-variant:normal;font-weight:normal;font-stretch:normal;text-align:start;line-height:125%;letter-spacing:0px;word-spacing:0px;writing-mode:lr-tb;text-anchor:start;fill:#ffffff;fill-opacity:1;stroke:#36890a;stroke-width:1.06747997;stroke-opacity:0;font-family:Yanone Kaffeesatz;-inkscape-font-specification:Yanone Kaffeesatz"
       x="260.38696"
       y="1120.4323"
       id="text4044"
       sodipodi:linespacing="125%"
       transform="scale(1.0796414,0.92623347)"><tspan
         sodipodi:role="line"
         id="tspan4046"
         x="260.38696"
         y="1120.4323"
         style="font-size:14.94471931px;font-style:normal;font-variant:normal;font-weight:normal;font-stretch:normal;text-align:start;line-height:125%;writing-mode:lr-tb;text-anchor:start;fill:#ffffff;stroke-width:1.06747997;font-family:Yanone Kaffeesatz;-inkscape-font-specification:Yanone Kaffeesatz">vegeu per què és important a documentfreedom.org/ca</tspan></text>
    <text
       xml:space="preserve"
       style="font-size:21.6961422px;font-style:normal;font-variant:normal;font-weight:normal;font-stretch:normal;text-align:start;line-height:125%;letter-spacing:0px;word-spacing:0px;writing-mode:lr-tb;text-anchor:start;fill:#ffffff;fill-opacity:1;stroke:#36890a;stroke-width:1.54972446;stroke-opacity:0;font-family:Yanone Kaffeesatz;-inkscape-font-specification:Yanone Kaffeesatz"
       x="105.507"
       y="1036.4823"
       id="text4044-1"
       sodipodi:linespacing="125%"><tspan
         sodipodi:role="line"
         id="tspan4046-8"
         x="105.507"
         y="1036.4823"
         style="fill:#ffffff;stroke-width:1.54972446">26 de març</tspan></text>
  </g>
</svg>
