<?xml version="1.0" encoding="UTF-8" standalone="no"?>
<!-- Created with Inkscape (http://www.inkscape.org/) -->

<svg
   xmlns:dc="http://purl.org/dc/elements/1.1/"
   xmlns:cc="http://creativecommons.org/ns#"
   xmlns:rdf="http://www.w3.org/1999/02/22-rdf-syntax-ns#"
   xmlns:svg="http://www.w3.org/2000/svg"
   xmlns="http://www.w3.org/2000/svg"
   xmlns:xlink="http://www.w3.org/1999/xlink"
   xmlns:sodipodi="http://sodipodi.sourceforge.net/DTD/sodipodi-0.dtd"
   xmlns:inkscape="http://www.inkscape.org/namespaces/inkscape"
   width="900"
   height="112.5"
   id="svg3784"
   version="1.1"
   inkscape:version="0.48.3.1 r9886"
   sodipodi:docname="720x90.svg"
   inkscape:export-filename="/home/albert/Escriptori/baners/720x90.png"
   inkscape:export-xdpi="72"
   inkscape:export-ydpi="72">
  <defs
     id="defs3786">
    <linearGradient
       inkscape:collect="always"
       xlink:href="#linearGradient3696"
       id="linearGradient3780"
       gradientUnits="userSpaceOnUse"
       gradientTransform="matrix(7.267268,0,0,4.0345981,-114.82887,-3193.4964)"
       x1="28.149378"
       y1="1027.9307"
       x2="36.248955"
       y2="1054.2212" />
    <linearGradient
       id="linearGradient3696">
      <stop
         style="stop-color:#b6e235;stop-opacity:1;"
         offset="0"
         id="stop3698" />
      <stop
         style="stop-color:#36890a;stop-opacity:1;"
         offset="1"
         id="stop3700" />
    </linearGradient>
    <linearGradient
       inkscape:collect="always"
       xlink:href="#linearGradient3980"
       id="linearGradient3782"
       gradientUnits="userSpaceOnUse"
       x1="108.70062"
       y1="915.66998"
       x2="121.24387"
       y2="1023.9117" />
    <linearGradient
       id="linearGradient3980">
      <stop
         style="stop-color:#ffffff;stop-opacity:1;"
         offset="0"
         id="stop3982" />
      <stop
         style="stop-color:#ffffff;stop-opacity:0;"
         offset="1"
         id="stop3984" />
    </linearGradient>
  </defs>
  <sodipodi:namedview
     id="base"
     pagecolor="#ffffff"
     bordercolor="#666666"
     borderopacity="1.0"
     inkscape:pageopacity="0.0"
     inkscape:pageshadow="2"
     inkscape:zoom="0.8098345"
     inkscape:cx="496.9298"
     inkscape:cy="51.282776"
     inkscape:document-units="pt"
     inkscape:current-layer="layer1"
     showgrid="false"
     units="pt"
     inkscape:window-width="1024"
     inkscape:window-height="713"
     inkscape:window-x="0"
     inkscape:window-y="27"
     inkscape:window-maximized="1"
     inkscape:snap-grids="true"
     inkscape:snap-bbox="false"
     inkscape:snap-page="true"
     inkscape:snap-bbox-midpoints="true">
    <inkscape:grid
       type="xygrid"
       id="grid3011"
       empspacing="5"
       visible="true"
       enabled="true"
       snapvisiblegridlinesonly="true" />
  </sodipodi:namedview>
  <metadata
     id="metadata3789">
    <rdf:RDF>
      <cc:Work
         rdf:about="">
        <dc:format>image/svg+xml</dc:format>
        <dc:type
           rdf:resource="http://purl.org/dc/dcmitype/StillImage" />
        <dc:title></dc:title>
      </cc:Work>
    </rdf:RDF>
  </metadata>
  <g
     inkscape:label="Layer 1"
     inkscape:groupmode="layer"
     id="layer1"
     transform="translate(0,-939.86218)">
    <g
       id="g3774"
       transform="matrix(1.9162656,0,0,1.8638198,2.0661829,-908.92369)">
      <rect
         y="992.36218"
         x="0"
         height="60"
         width="468"
         id="rect2992"
         style="fill:url(#linearGradient3780);fill-opacity:1;stroke:none" />
      <path
         sodipodi:nodetypes="cccsc"
         inkscape:connector-curvature="0"
         id="path3210"
         d="m 326.14758,992.86239 -325.647368,0 0,56.60401 c 0,0 29.3914,-21.3996 96.275026,-31.1646 78.058382,-11.3963 229.372342,-25.43941 229.372342,-25.43941 z"
         style="fill:url(#linearGradient3782);fill-opacity:1;stroke:none" />
      <rect
         y="992.36218"
         x="0"
         height="60"
         width="468"
         id="rect2992-7"
         style="fill:none;stroke:#505050;stroke-opacity:1" />
      <path
         inkscape:connector-curvature="0"
         id="rect2992-7-9"
         d="m 2,1050.375 c 154.66667,0 309.33333,0 464,0 0,-18.6667 0,-37.3333 0,-56 -154.66667,0 -309.33333,0 -464,0 0,18.6667 0,37.3333 0,56 z"
         style="fill:none;stroke:#acacac;stroke-opacity:0.82442747" />
    </g>
    <g
       id="g3003"
       transform="translate(-3.2495606,0)">
      <path
         inkscape:export-ydpi="72.031548"
         inkscape:export-xdpi="72.031548"
         inkscape:export-filename="/home/ivan/Desktop/wiki.png"
         d="m 93.807281,986.62522 c 0,0 -1.236234,1.3546 -1.236234,1.3546 -2.201702,-6.49168 -6.287444,-10.86386 -11.53701,-13.54937 0,0 18.965963,-14.72717 18.965963,-14.72717 -5.082797,8.56545 -6.215726,20.92964 -6.192719,26.92194 z M 105.2898,974.47245 c 0,0 -4.24656,0.61051 -6.58956,7.49316 -2.005756,5.88198 -3.760262,8.07296 -5.399234,9.88242 0,0 -23.36041,24.31927 -23.36041,24.31927 0,0 -4.010189,3.7183 -8.847066,5.0917 -6.64084,1.8876 -19.790532,4.017 -23.874815,4.505 -4.083552,0.4915 -1.298968,2.8439 3.060709,5.4407 4.359317,2.5962 5.009295,3.8809 13.715435,-0.824 8.705769,-4.7052 17.043101,-0.3885 34.887661,-5.5118 17.84421,-5.1265 21.47017,-19.4089 21.14481,-29.89712 -0.3259,-10.48942 0.99457,-12.77178 2.04441,-13.6603 1.04967,-0.8862 4.97586,-2.10552 4.97586,-2.10552 0,0 -4.60123,-1.49637 -4.60123,-1.49637 0,0 -0.55773,-0.83511 -2.49284,-2.32498 -1.93591,-1.49181 -4.66373,-0.91635 -4.66373,-0.91635 z m -37.394538,38.15935 c -8.045724,-10.6548 -20.047301,-14.25169 -33.368019,-12.0155 0,0 22.966985,-25.99762 22.966985,-25.99762 13.364708,-2.09509 28.42584,1.1768 32.538172,15.54485 0,0 -21.666132,23.10857 -21.666132,23.10857 0,0 -0.303443,-0.4189 -0.47155,-0.6419 z"
         style="fill:#ffffff;fill-opacity:1;stroke:#36890a;stroke-width:1.69786489;stroke-opacity:1"
         id="path4190"
         inkscape:connector-curvature="0" />
      <text
         sodipodi:linespacing="125%"
         id="text4040"
         y="1002.3622"
         x="154.2527"
         style="font-size:59.5076828px;font-style:normal;font-variant:normal;font-weight:normal;font-stretch:normal;text-align:start;line-height:125%;letter-spacing:0px;word-spacing:0px;writing-mode:lr-tb;text-anchor:start;fill:#ffffff;fill-opacity:1;stroke:#36890a;stroke-width:1.74615884;stroke-opacity:0.676259;font-family:Yanone Kaffeesatz;-inkscape-font-specification:Yanone Kaffeesatz"
         xml:space="preserve"><tspan
           style="stroke-width:1.74615884"
           y="1002.3622"
           x="154.2527"
           id="tspan4042"
           sodipodi:role="line">Dia de la Llibertat dels Documents 2014</tspan></text>
      <text
         transform="scale(1.0796414,0.92623346)"
         sodipodi:linespacing="125%"
         id="text4044"
         y="1113.2593"
         x="430.7486"
         style="font-size:22.38839531px;font-style:normal;font-variant:normal;font-weight:normal;font-stretch:normal;text-align:start;line-height:125%;letter-spacing:0px;word-spacing:0px;writing-mode:lr-tb;text-anchor:start;fill:#ffffff;fill-opacity:1;stroke:#36890a;stroke-width:1.59917116;stroke-opacity:0;font-family:Yanone Kaffeesatz;-inkscape-font-specification:Yanone Kaffeesatz"
         xml:space="preserve"><tspan
           style="font-size:22.38839531px;font-style:normal;font-variant:normal;font-weight:normal;font-stretch:normal;text-align:start;line-height:125%;writing-mode:lr-tb;text-anchor:start;fill:#ffffff;stroke-width:1.59917116;font-family:Yanone Kaffeesatz;-inkscape-font-specification:Yanone Kaffeesatz"
           y="1113.2593"
           x="430.7486"
           id="tspan4046"
           sodipodi:role="line">vegeu per què és important a documentfreedom.org/ca</tspan></text>
      <text
         sodipodi:linespacing="125%"
         id="text4044-1"
         y="1029.1912"
         x="160.08809"
         style="font-size:32.50257111px;font-style:normal;font-variant:normal;font-weight:normal;font-stretch:normal;text-align:start;line-height:125%;letter-spacing:0px;word-spacing:0px;writing-mode:lr-tb;text-anchor:start;fill:#ffffff;fill-opacity:1;stroke:#36890a;stroke-width:2.32161212;stroke-opacity:0;font-family:Yanone Kaffeesatz;-inkscape-font-specification:Yanone Kaffeesatz"
         xml:space="preserve"><tspan
           style="fill:#ffffff;stroke-width:2.32161212"
           y="1029.1912"
           x="160.08809"
           id="tspan4046-8"
           sodipodi:role="line">26 de març</tspan></text>
    </g>
  </g>
</svg>
