<?xml version="1.0" encoding="UTF-8" standalone="no"?>
<!-- Created with Inkscape (http://www.inkscape.org/) -->

<svg
   xmlns:dc="http://purl.org/dc/elements/1.1/"
   xmlns:cc="http://creativecommons.org/ns#"
   xmlns:rdf="http://www.w3.org/1999/02/22-rdf-syntax-ns#"
   xmlns:svg="http://www.w3.org/2000/svg"
   xmlns="http://www.w3.org/2000/svg"
   xmlns:xlink="http://www.w3.org/1999/xlink"
   xmlns:sodipodi="http://sodipodi.sourceforge.net/DTD/sodipodi-0.dtd"
   xmlns:inkscape="http://www.inkscape.org/namespaces/inkscape"
   width="660"
   height="120"
   id="svg2999"
   version="1.1"
   inkscape:version="0.48.0 r9654"
   sodipodi:docname="dfd2011-banner-660x120.svg"
   inkscape:export-filename="/home/deneb/eventi/dfd2011/svg-2011/dfd2011-banner-660x120.png"
   inkscape:export-xdpi="90"
   inkscape:export-ydpi="90">
  <defs
     id="defs3001">
    <inkscape:perspective
       sodipodi:type="inkscape:persp3d"
       inkscape:vp_x="0 : 526.18109 : 1"
       inkscape:vp_y="0 : 1000 : 0"
       inkscape:vp_z="744.09448 : 526.18109 : 1"
       inkscape:persp3d-origin="372.04724 : 350.78739 : 1"
       id="perspective3007" />
    <inkscape:perspective
       id="perspective2964"
       inkscape:persp3d-origin="0.5 : 0.33333333 : 1"
       inkscape:vp_z="1 : 0.5 : 1"
       inkscape:vp_y="0 : 1000 : 0"
       inkscape:vp_x="0 : 0.5 : 1"
       sodipodi:type="inkscape:persp3d" />
    <linearGradient
       inkscape:collect="always"
       xlink:href="#linearGradient3696"
       id="linearGradient3777"
       gradientUnits="userSpaceOnUse"
       gradientTransform="matrix(0.94686121,0,0,0.94686119,6.1001525,44.116227)"
       x1="357.92072"
       y1="589.32819"
       x2="357.92072"
       y2="657.38831" />
    <linearGradient
       id="linearGradient3696">
      <stop
         style="stop-color:#b6e235;stop-opacity:1;"
         offset="0"
         id="stop3698" />
      <stop
         style="stop-color:#36890a;stop-opacity:1;"
         offset="1"
         id="stop3700" />
    </linearGradient>
    <linearGradient
       inkscape:collect="always"
       xlink:href="#linearGradient3696"
       id="linearGradient2972"
       gradientUnits="userSpaceOnUse"
       gradientTransform="translate(6.4720239,-19.284364)"
       x1="357.92072"
       y1="589.32819"
       x2="357.92072"
       y2="657.38831" />
    <linearGradient
       id="linearGradient2974">
      <stop
         style="stop-color:#b6e235;stop-opacity:1;"
         offset="0"
         id="stop2976" />
      <stop
         style="stop-color:#36890a;stop-opacity:1;"
         offset="1"
         id="stop2978" />
    </linearGradient>
    <linearGradient
       inkscape:collect="always"
       xlink:href="#linearGradient3696-8"
       id="linearGradient3773"
       gradientUnits="userSpaceOnUse"
       gradientTransform="matrix(0.64186016,0,0,0.64186015,259.81394,258.39622)"
       x1="279.49557"
       y1="722.70312"
       x2="279.49557"
       y2="586.22162" />
    <linearGradient
       id="linearGradient3696-8">
      <stop
         style="stop-color:#000000;stop-opacity:1;"
         offset="0"
         id="stop3698-2" />
      <stop
         style="stop-color:#36890a;stop-opacity:1;"
         offset="1"
         id="stop3700-0" />
    </linearGradient>
    <linearGradient
       inkscape:collect="always"
       xlink:href="#linearGradient3696-8"
       id="linearGradient2984"
       gradientUnits="userSpaceOnUse"
       gradientTransform="matrix(0.64186016,0,0,0.64186015,259.81394,258.39622)"
       x1="279.49557"
       y1="722.70312"
       x2="279.49557"
       y2="586.22162" />
    <linearGradient
       id="linearGradient2986">
      <stop
         style="stop-color:#000000;stop-opacity:1;"
         offset="0"
         id="stop2988" />
      <stop
         style="stop-color:#36890a;stop-opacity:1;"
         offset="1"
         id="stop2990" />
    </linearGradient>
    <linearGradient
       y2="586.22162"
       x2="279.49557"
       y1="722.70312"
       x1="279.49557"
       gradientTransform="matrix(0.64186016,0,0,0.64186015,283.36334,249.56374)"
       gradientUnits="userSpaceOnUse"
       id="linearGradient2997"
       xlink:href="#linearGradient3696-8"
       inkscape:collect="always" />
    <inkscape:perspective
       id="perspective3068"
       inkscape:persp3d-origin="0.5 : 0.33333333 : 1"
       inkscape:vp_z="1 : 0.5 : 1"
       inkscape:vp_y="0 : 1000 : 0"
       inkscape:vp_x="0 : 0.5 : 1"
       sodipodi:type="inkscape:persp3d" />
    <linearGradient
       id="linearGradient4364">
      <stop
         style="stop-color:#ffffff;stop-opacity:1;"
         offset="0"
         id="stop4366" />
      <stop
         style="stop-color:#42b30b;stop-opacity:0;"
         offset="1"
         id="stop4368" />
    </linearGradient>
    <filter
       id="filter3677"
       inkscape:label="Fuzzy Glow"
       inkscape:menu="Shadows and Glows"
       inkscape:menu-tooltip="Overlays a semi-transparent shifted copy to a blurred one"
       color-interpolation-filters="sRGB">
      <feOffset
         id="feOffset3679"
         dx="4"
         dy="4"
         result="result11"
         in="SourceGraphic" />
      <feGaussianBlur
         id="feGaussianBlur3681"
         stdDeviation="4"
         result="result8" />
      <feComposite
         id="feComposite3683"
         in2="result8"
         result="result9"
         in="SourceGraphic"
         operator="in" />
      <feBlend
         id="feBlend3685"
         in2="result8"
         in="result9"
         mode="darken" />
    </filter>
    <linearGradient
       id="linearGradient4352">
      <stop
         style="stop-color:#ffff4f;stop-opacity:0.82745099;"
         offset="0"
         id="stop4354" />
      <stop
         style="stop-color:#42b30b;stop-opacity:0;"
         offset="1"
         id="stop4356" />
    </linearGradient>
    <inkscape:perspective
       id="perspective3172"
       inkscape:persp3d-origin="0.5 : 0.33333333 : 1"
       inkscape:vp_z="1 : 0.5 : 1"
       inkscape:vp_y="0 : 1000 : 0"
       inkscape:vp_x="0 : 0.5 : 1"
       sodipodi:type="inkscape:persp3d" />
    <linearGradient
       id="linearGradient4352-6">
      <stop
         style="stop-color:#ffff4f;stop-opacity:0.82745099;"
         offset="0"
         id="stop4354-7" />
      <stop
         style="stop-color:#42b30b;stop-opacity:0;"
         offset="1"
         id="stop4356-5" />
    </linearGradient>
    <filter
       id="filter3677-6"
       inkscape:label="Fuzzy Glow"
       inkscape:menu="Shadows and Glows"
       inkscape:menu-tooltip="Overlays a semi-transparent shifted copy to a blurred one"
       color-interpolation-filters="sRGB">
      <feOffset
         id="feOffset3679-9"
         dx="4"
         dy="4"
         result="result11"
         in="SourceGraphic" />
      <feGaussianBlur
         id="feGaussianBlur3681-8"
         stdDeviation="4"
         result="result8" />
      <feComposite
         id="feComposite3683-7"
         in2="result8"
         result="result9"
         in="SourceGraphic"
         operator="in" />
      <feBlend
         id="feBlend3685-2"
         in2="result8"
         in="result9"
         mode="darken" />
    </filter>
    <linearGradient
       id="linearGradient4364-2">
      <stop
         style="stop-color:#ffffff;stop-opacity:1;"
         offset="0"
         id="stop4366-9" />
      <stop
         style="stop-color:#42b30b;stop-opacity:0;"
         offset="1"
         id="stop4368-9" />
    </linearGradient>
    <linearGradient
       inkscape:collect="always"
       xlink:href="#linearGradient4364-2"
       id="linearGradient3269"
       gradientUnits="userSpaceOnUse"
       gradientTransform="matrix(2.9759755,0,0,0.79461019,-593.36542,646.7141)"
       x1="248.9016"
       y1="319.79956"
       x2="287.28848"
       y2="526.40344" />
    <radialGradient
       inkscape:collect="always"
       xlink:href="#linearGradient4352-6"
       id="radialGradient3274"
       gradientUnits="userSpaceOnUse"
       gradientTransform="matrix(7.49954,-1.091753,9.3016693,1.1525694,-8159.597,646.67655)"
       cx="313.43893"
       cy="663.65607"
       fx="313.43893"
       fy="663.65607"
       r="132.9715" />
    <inkscape:perspective
       id="perspective3301"
       inkscape:persp3d-origin="0.5 : 0.33333333 : 1"
       inkscape:vp_z="1 : 0.5 : 1"
       inkscape:vp_y="0 : 1000 : 0"
       inkscape:vp_x="0 : 0.5 : 1"
       sodipodi:type="inkscape:persp3d" />
    <linearGradient
       inkscape:collect="always"
       xlink:href="#linearGradient3696-8"
       id="linearGradient3332"
       gradientUnits="userSpaceOnUse"
       gradientTransform="matrix(1.0218562,0,0,1.0218562,77.187383,498.52788)"
       x1="279.49557"
       y1="722.70312"
       x2="279.49557"
       y2="586.22162" />
    <linearGradient
       inkscape:collect="always"
       xlink:href="#linearGradient3696"
       id="linearGradient3336"
       gradientUnits="userSpaceOnUse"
       gradientTransform="matrix(1.2199083,0,0,1.2199084,-52.053653,373.26201)"
       x1="357.92072"
       y1="589.32819"
       x2="357.92072"
       y2="657.38831" />
    <inkscape:perspective
       id="perspective4267"
       inkscape:persp3d-origin="0.5 : 0.33333333 : 1"
       inkscape:vp_z="1 : 0.5 : 1"
       inkscape:vp_y="0 : 1000 : 0"
       inkscape:vp_x="0 : 0.5 : 1"
       sodipodi:type="inkscape:persp3d" />
    <radialGradient
       inkscape:collect="always"
       xlink:href="#linearGradient4352-9"
       id="radialGradient3201-4"
       gradientUnits="userSpaceOnUse"
       gradientTransform="matrix(0.67660547,-0.92101985,0.83919284,0.97232555,-296.76359,662.26922)"
       cx="313.43893"
       cy="663.65607"
       fx="313.43893"
       fy="663.65607"
       r="132.9715" />
    <linearGradient
       id="linearGradient4352-9">
      <stop
         style="stop-color:#ffff4f;stop-opacity:0.82745099;"
         offset="0"
         id="stop4354-2" />
      <stop
         style="stop-color:#42b30b;stop-opacity:0;"
         offset="1"
         id="stop4356-57" />
    </linearGradient>
    <filter
       id="filter3677-4"
       inkscape:label="Fuzzy Glow"
       inkscape:menu="Shadows and Glows"
       inkscape:menu-tooltip="Overlays a semi-transparent shifted copy to a blurred one"
       color-interpolation-filters="sRGB">
      <feOffset
         id="feOffset3679-99"
         dx="4"
         dy="4"
         result="result11"
         in="SourceGraphic" />
      <feGaussianBlur
         id="feGaussianBlur3681-4"
         stdDeviation="4"
         result="result8" />
      <feComposite
         id="feComposite3683-5"
         in2="result8"
         result="result9"
         in="SourceGraphic"
         operator="in" />
      <feBlend
         id="feBlend3685-9"
         in2="result8"
         in="result9"
         mode="darken" />
    </filter>
    <linearGradient
       inkscape:collect="always"
       xlink:href="#linearGradient4364-5"
       id="linearGradient3203-3"
       gradientUnits="userSpaceOnUse"
       gradientTransform="matrix(0.25605699,0,0,0.24955114,389.92913,830.97469)"
       x1="248.9016"
       y1="319.79956"
       x2="287.28848"
       y2="526.40344" />
    <linearGradient
       id="linearGradient4364-5">
      <stop
         style="stop-color:#ffffff;stop-opacity:1;"
         offset="0"
         id="stop4366-7" />
      <stop
         style="stop-color:#42b30b;stop-opacity:0;"
         offset="1"
         id="stop4368-0" />
    </linearGradient>
    <linearGradient
       inkscape:collect="always"
       xlink:href="#linearGradient4364-5"
       id="linearGradient4360"
       gradientUnits="userSpaceOnUse"
       gradientTransform="matrix(0.23096711,0,0,0.22509874,488.74696,770.2883)"
       x1="248.9016"
       y1="319.79956"
       x2="287.28848"
       y2="526.40344" />
    <radialGradient
       inkscape:collect="always"
       xlink:href="#linearGradient4352-9"
       id="radialGradient4365"
       gradientUnits="userSpaceOnUse"
       gradientTransform="matrix(0.61030792,-0.83077323,0.75696408,0.87705172,-130.65981,618.11352)"
       cx="313.43893"
       cy="663.65607"
       fx="313.43893"
       fy="663.65607"
       r="132.9715" />
    <inkscape:perspective
       id="perspective4376"
       inkscape:persp3d-origin="0.5 : 0.33333333 : 1"
       inkscape:vp_z="1 : 0.5 : 1"
       inkscape:vp_y="0 : 1000 : 0"
       inkscape:vp_x="0 : 0.5 : 1"
       sodipodi:type="inkscape:persp3d" />
    <linearGradient
       inkscape:collect="always"
       xlink:href="#linearGradient3696-7"
       id="linearGradient3336-3"
       gradientUnits="userSpaceOnUse"
       gradientTransform="matrix(1.2199083,0,0,1.2199084,-50.338597,373.26201)"
       x1="357.92072"
       y1="589.32819"
       x2="357.92072"
       y2="657.38831" />
    <linearGradient
       id="linearGradient3696-7">
      <stop
         style="stop-color:#b6e235;stop-opacity:1;"
         offset="0"
         id="stop3698-4" />
      <stop
         style="stop-color:#36890a;stop-opacity:1;"
         offset="1"
         id="stop3700-5" />
    </linearGradient>
    <linearGradient
       inkscape:collect="always"
       xlink:href="#linearGradient3696-7"
       id="linearGradient3089"
       gradientUnits="userSpaceOnUse"
       gradientTransform="matrix(1.2199083,0,0,1.2199084,-50.338597,373.26201)"
       x1="357.92072"
       y1="589.32819"
       x2="357.92072"
       y2="657.38831" />
    <linearGradient
       id="linearGradient3091">
      <stop
         style="stop-color:#b6e235;stop-opacity:1;"
         offset="0"
         id="stop3093" />
      <stop
         style="stop-color:#36890a;stop-opacity:1;"
         offset="1"
         id="stop3095" />
    </linearGradient>
    <linearGradient
       y2="657.38831"
       x2="357.92072"
       y1="589.32819"
       x1="357.92072"
       gradientTransform="matrix(1.2199083,0,0,1.2199084,-19.682266,274.16708)"
       gradientUnits="userSpaceOnUse"
       id="linearGradient3099"
       xlink:href="#linearGradient3696-7"
       inkscape:collect="always" />
  </defs>
  <sodipodi:namedview
     id="base"
     pagecolor="#ffffff"
     bordercolor="#666666"
     borderopacity="1.0"
     inkscape:pageopacity="0.0"
     inkscape:pageshadow="2"
     inkscape:zoom="0.98994949"
     inkscape:cx="322.15288"
     inkscape:cy="63.609251"
     inkscape:document-units="px"
     inkscape:current-layer="layer1"
     showgrid="false"
     inkscape:window-width="1024"
     inkscape:window-height="527"
     inkscape:window-x="0"
     inkscape:window-y="24"
     inkscape:window-maximized="1"
     showguides="true"
     inkscape:guide-bbox="true" />
  <metadata
     id="metadata3004">
    <rdf:RDF>
      <cc:Work
         rdf:about="">
        <dc:format>image/svg+xml</dc:format>
        <dc:type
           rdf:resource="http://purl.org/dc/dcmitype/StillImage" />
        <dc:title></dc:title>
      </cc:Work>
    </rdf:RDF>
  </metadata>
  <g
     inkscape:label="Livello 1"
     inkscape:groupmode="layer"
     id="layer1"
     transform="translate(0,-932.36218)">
    <text
       xml:space="preserve"
       style="font-size:84.20571136px;font-style:normal;font-variant:normal;font-weight:bold;font-stretch:normal;text-align:start;line-height:100%;writing-mode:lr-tb;text-anchor:start;fill:#004f00;fill-opacity:1;stroke:#36890a;stroke-width:1.21990848;stroke-opacity:1;font-family:Yanone Kaffeesatz;-inkscape-font-specification:Yanone Kaffeesatz Bold"
       x="4.4768248"
       y="1151.8973"
       id="text3708-1-2"
       sodipodi:linespacing="100%"
       transform="scale(1.1661437,0.85752725)"><tspan
         sodipodi:role="line"
         x="4.4768248"
         y="1151.8973"
         style="font-size:84.20571136px;font-style:normal;font-variant:normal;font-weight:bold;font-stretch:normal;text-align:start;line-height:100%;writing-mode:lr-tb;text-anchor:start;fill:#004f00;fill-opacity:1;stroke:#36890a;stroke-width:1.21990848;stroke-opacity:1;font-family:Yanone Kaffeesatz;-inkscape-font-specification:Yanone Kaffeesatz Bold"
         id="tspan3714-0-5">Document Freedom Day</tspan></text>
    <text
       xml:space="preserve"
       style="font-size:84.20571136px;font-style:normal;font-variant:normal;font-weight:bold;font-stretch:normal;text-align:start;line-height:100%;writing-mode:lr-tb;text-anchor:start;fill:url(#linearGradient3336);fill-opacity:1;stroke:#36890a;stroke-width:1.21990848;stroke-opacity:1;font-family:Yanone Kaffeesatz;-inkscape-font-specification:Yanone Kaffeesatz Bold"
       x="0.63889647"
       y="1154.7531"
       id="text3708-1"
       sodipodi:linespacing="100%"
       transform="scale(1.1661437,0.85752725)"><tspan
         sodipodi:role="line"
         x="0.63889647"
         y="1154.7531"
         style="font-size:84.20571136px;font-style:normal;font-variant:normal;font-weight:bold;font-stretch:normal;text-align:start;line-height:100%;writing-mode:lr-tb;text-anchor:start;fill:url(#linearGradient3336);fill-opacity:1;stroke:#36890a;stroke-width:1.21990848;stroke-opacity:1;font-family:Yanone Kaffeesatz;-inkscape-font-specification:Yanone Kaffeesatz Bold"
         id="tspan3714-0">Document Freedom Day</tspan></text>
    <text
       xml:space="preserve"
       style="font-size:70.53491211px;font-style:normal;font-variant:normal;font-weight:bold;font-stretch:normal;text-align:start;line-height:100%;writing-mode:lr-tb;text-anchor:start;fill:url(#linearGradient3332);fill-opacity:1;stroke:#36890a;stroke-width:1.02185619;stroke-opacity:1;font-family:Yanone Kaffeesatz;-inkscape-font-specification:Yanone Kaffeesatz Bold"
       x="121.32526"
       y="1153.1438"
       id="text3708-1-6"
       sodipodi:linespacing="100%"
       transform="scale(1.1040596,0.9057482)"><tspan
         sodipodi:role="line"
         x="121.32526"
         y="1153.1438"
         style="font-size:70.53491211px;font-style:normal;font-variant:normal;font-weight:bold;font-stretch:normal;text-align:start;line-height:100%;writing-mode:lr-tb;text-anchor:start;fill:url(#linearGradient3332);fill-opacity:1;stroke:#36890a;stroke-width:1.02185619;stroke-opacity:1;font-family:Yanone Kaffeesatz;-inkscape-font-specification:Yanone Kaffeesatz Bold"
         id="tspan3714-0-4">March 30th 2011</tspan></text>
  </g>
</svg>
