<?xml version="1.0" encoding="UTF-8" standalone="no"?>
<!-- Created with Inkscape (http://www.inkscape.org/) -->

<svg
   xmlns:dc="http://purl.org/dc/elements/1.1/"
   xmlns:cc="http://creativecommons.org/ns#"
   xmlns:rdf="http://www.w3.org/1999/02/22-rdf-syntax-ns#"
   xmlns:svg="http://www.w3.org/2000/svg"
   xmlns="http://www.w3.org/2000/svg"
   xmlns:xlink="http://www.w3.org/1999/xlink"
   xmlns:sodipodi="http://sodipodi.sourceforge.net/DTD/sodipodi-0.dtd"
   xmlns:inkscape="http://www.inkscape.org/namespaces/inkscape"
   width="744.09448"
   height="1052.3622"
   id="svg2"
   version="1.1"
   inkscape:version="0.48.1 r9760"
   sodipodi:docname="dfd-flyer-1.svg"
   inkscape:export-filename="/home/samtuke/fsfe/svn/dfd/trunk/artwork/sources/dfd-flyer-1.png"
   inkscape:export-xdpi="89.929733"
   inkscape:export-ydpi="89.929733">
  <defs
     id="defs4">
    <linearGradient
       id="linearGradient3782">
      <stop
         style="stop-color:#e7f248;stop-opacity:0.49803922;"
         offset="0"
         id="stop3792" />
      <stop
         id="stop3786"
         offset="1"
         style="stop-color:#d7e500;stop-opacity:0;" />
    </linearGradient>
    <radialGradient
       r="132.9715"
       fy="663.65607"
       fx="313.43893"
       cy="663.65607"
       cx="313.43893"
       gradientTransform="matrix(1.638264,-2.2186734,2.0319365,2.3422652,-2121.4635,-1321.5605)"
       gradientUnits="userSpaceOnUse"
       id="radialGradient4108"
       xlink:href="#linearGradient4352"
       inkscape:collect="always" />
    <radialGradient
       r="132.9715"
       fy="663.65607"
       fx="313.43893"
       cy="663.65607"
       cx="313.43893"
       gradientTransform="matrix(1.638264,-2.2186734,2.0319365,2.3422652,-2121.4635,-1321.5605)"
       gradientUnits="userSpaceOnUse"
       id="radialGradient3334"
       xlink:href="#linearGradient4352"
       inkscape:collect="always" />
    <radialGradient
       r="132.9715"
       fy="663.65607"
       fx="313.43893"
       cy="663.65607"
       cx="313.43893"
       gradientTransform="matrix(2.71129,-3.690706,3.3628091,3.8962979,-3721.8894,-1777.4129)"
       gradientUnits="userSpaceOnUse"
       id="radialGradient3328"
       xlink:href="#linearGradient4352"
       inkscape:collect="always" />
    <linearGradient
       y2="526.40344"
       x2="287.28848"
       y1="319.79956"
       x1="248.9016"
       gradientTransform="matrix(0.3979704,0,0,0.38785885,-47.836437,-137.36218)"
       gradientUnits="userSpaceOnUse"
       id="linearGradient4048"
       xlink:href="#linearGradient4364"
       inkscape:collect="always" />
    <radialGradient
       r="132.9715"
       fy="663.65607"
       fx="313.43893"
       cy="663.65607"
       cx="313.43893"
       gradientTransform="matrix(1.0515978,-1.431473,1.3042953,1.5112136,-1115.1122,-399.56863)"
       gradientUnits="userSpaceOnUse"
       id="radialGradient4046"
       xlink:href="#linearGradient4352"
       inkscape:collect="always" />
    <clipPath
       id="clipPath4050"
       clipPathUnits="userSpaceOnUse">
      <rect
         ry="0"
         y="203.36217"
         x="227.64502"
         height="176"
         width="143"
         id="rect4052"
         style="opacity:0.2;fill:#b1ff45;fill-opacity:1;stroke:#406809;stroke-width:1.5;stroke-miterlimit:4;stroke-opacity:1;stroke-dasharray:none" />
    </clipPath>
    <linearGradient
       y2="657.38831"
       x2="357.92072"
       y1="589.32819"
       x1="357.92072"
       gradientTransform="matrix(1.2457191,0,0,1.2457191,152.15294,-1045.8374)"
       gradientUnits="userSpaceOnUse"
       id="linearGradient4192"
       xlink:href="#linearGradient3696"
       inkscape:collect="always" />
    <linearGradient
       y2="657.38831"
       x2="357.92072"
       y1="589.32819"
       x1="357.92072"
       gradientTransform="matrix(1.2457191,0,0,1.2457191,106.86553,-714.61957)"
       gradientUnits="userSpaceOnUse"
       id="linearGradient4132"
       xlink:href="#linearGradient3696"
       inkscape:collect="always" />
    <linearGradient
       y2="657.38831"
       x2="357.92072"
       y1="589.32819"
       x1="357.92072"
       gradientTransform="matrix(1.2457191,0,0,1.2457191,106.86553,-714.61957)"
       gradientUnits="userSpaceOnUse"
       id="linearGradient4064"
       xlink:href="#linearGradient3696"
       inkscape:collect="always" />
    <linearGradient
       y2="586.22162"
       x2="279.49557"
       y1="722.70312"
       x1="279.49557"
       gradientTransform="matrix(1.0073764,0,0,1.0073763,237.44409,-445.71994)"
       gradientUnits="userSpaceOnUse"
       id="linearGradient4021"
       xlink:href="#linearGradient3696-8"
       inkscape:collect="always" />
    <linearGradient
       y2="657.38831"
       x2="357.92072"
       y1="589.32819"
       x1="357.92072"
       gradientTransform="matrix(1.2795762,0,0,1.2795762,106.45291,-679.60613)"
       gradientUnits="userSpaceOnUse"
       id="linearGradient4019"
       xlink:href="#linearGradient3696"
       inkscape:collect="always" />
    <linearGradient
       y2="657.38831"
       x2="357.92072"
       y1="589.32819"
       x1="357.92072"
       gradientTransform="matrix(1.2795762,0,0,1.2795762,106.45291,-679.60613)"
       gradientUnits="userSpaceOnUse"
       id="linearGradient4011"
       xlink:href="#linearGradient3696"
       inkscape:collect="always" />
    <linearGradient
       y2="586.22162"
       x2="279.49557"
       y1="722.70312"
       x1="279.49557"
       gradientTransform="matrix(1.0073764,0,0,1.0073763,237.44409,-445.71994)"
       gradientUnits="userSpaceOnUse"
       id="linearGradient4007"
       xlink:href="#linearGradient3696-8"
       inkscape:collect="always" />
    <linearGradient
       y2="586.22162"
       x2="279.49557"
       y1="722.70312"
       x1="279.49557"
       gradientTransform="matrix(0.64186016,0,0,0.64186015,-34.286544,-466.80785)"
       gradientUnits="userSpaceOnUse"
       id="linearGradient4003"
       xlink:href="#linearGradient3696-8"
       inkscape:collect="always" />
    <linearGradient
       y2="657.38831"
       x2="357.92072"
       y1="589.32819"
       x1="357.92072"
       gradientTransform="translate(-168.20724,-735.65595)"
       gradientUnits="userSpaceOnUse"
       id="linearGradient4001"
       xlink:href="#linearGradient3696"
       inkscape:collect="always" />
    <linearGradient
       y2="657.38831"
       x2="357.92072"
       y1="589.32819"
       x1="357.92072"
       gradientTransform="translate(-158.83465,-914.79597)"
       gradientUnits="userSpaceOnUse"
       id="linearGradient3966"
       xlink:href="#linearGradient3696"
       inkscape:collect="always" />
    <linearGradient
       y2="657.38831"
       x2="357.92072"
       y1="589.32819"
       x1="357.92072"
       gradientTransform="translate(-158.83465,-981.03954)"
       gradientUnits="userSpaceOnUse"
       id="linearGradient3964"
       xlink:href="#linearGradient3696"
       inkscape:collect="always" />
    <linearGradient
       y2="657.38831"
       x2="357.92072"
       y1="589.32819"
       x1="357.92072"
       gradientTransform="translate(-158.83465,-1045.075)"
       gradientUnits="userSpaceOnUse"
       id="linearGradient3962"
       xlink:href="#linearGradient3696"
       inkscape:collect="always" />
    <linearGradient
       y2="657.38831"
       x2="357.92072"
       y1="589.32819"
       x1="357.92072"
       gradientTransform="translate(-168.20724,-735.65595)"
       gradientUnits="userSpaceOnUse"
       id="linearGradient3952"
       xlink:href="#linearGradient3696"
       inkscape:collect="always" />
    <linearGradient
       y2="586.22162"
       x2="279.49557"
       y1="722.70312"
       x1="279.49557"
       gradientTransform="matrix(0.64186016,0,0,0.64186015,-34.286544,-466.80785)"
       gradientUnits="userSpaceOnUse"
       id="linearGradient3948"
       xlink:href="#linearGradient3696-8"
       inkscape:collect="always" />
    <linearGradient
       y2="657.38831"
       x2="357.92072"
       y1="589.32819"
       x1="357.92072"
       gradientTransform="translate(-158.83465,-1045.075)"
       gradientUnits="userSpaceOnUse"
       id="linearGradient3944"
       xlink:href="#linearGradient3696"
       inkscape:collect="always" />
    <linearGradient
       y2="657.38831"
       x2="357.92072"
       y1="589.32819"
       x1="357.92072"
       gradientTransform="translate(-158.83465,-981.03954)"
       gradientUnits="userSpaceOnUse"
       id="linearGradient3940"
       xlink:href="#linearGradient3696"
       inkscape:collect="always" />
    <linearGradient
       y2="657.38831"
       x2="357.92072"
       y1="589.32819"
       x1="357.92072"
       gradientTransform="translate(-158.83465,-914.79597)"
       gradientUnits="userSpaceOnUse"
       id="linearGradient3936"
       xlink:href="#linearGradient3696"
       inkscape:collect="always" />
    <linearGradient
       y2="657.38831"
       x2="357.92072"
       y1="589.32819"
       x1="357.92072"
       gradientTransform="translate(15.844619,-198.42438)"
       gradientUnits="userSpaceOnUse"
       id="linearGradient3164"
       xlink:href="#linearGradient3696"
       inkscape:collect="always" />
    <linearGradient
       y2="657.38831"
       x2="357.92072"
       y1="589.32819"
       x1="357.92072"
       gradientTransform="translate(15.844619,-264.66795)"
       gradientUnits="userSpaceOnUse"
       id="linearGradient3158"
       xlink:href="#linearGradient3696"
       inkscape:collect="always" />
    <linearGradient
       y2="657.38831"
       x2="357.92072"
       y1="589.32819"
       x1="357.92072"
       gradientTransform="translate(15.844619,-328.7034)"
       gradientUnits="userSpaceOnUse"
       id="linearGradient3152"
       xlink:href="#linearGradient3696"
       inkscape:collect="always" />
    <linearGradient
       y2="657.38831"
       x2="357.92072"
       y1="589.32819"
       x1="357.92072"
       gradientTransform="translate(6.4720239,-218.26461)"
       gradientUnits="userSpaceOnUse"
       id="linearGradient3142"
       xlink:href="#linearGradient3696"
       inkscape:collect="always" />
    <linearGradient
       y2="586.22162"
       x2="279.49557"
       y1="722.70312"
       x1="279.49557"
       gradientTransform="matrix(0.64186016,0,0,0.64186015,533.69806,276.06118)"
       gradientUnits="userSpaceOnUse"
       id="linearGradient3128"
       xlink:href="#linearGradient3696-8"
       inkscape:collect="always" />
    <linearGradient
       y2="586.22162"
       x2="279.49557"
       y1="722.70312"
       x1="279.49557"
       gradientTransform="matrix(0.64186016,0,0,0.64186015,533.69806,258.39622)"
       gradientUnits="userSpaceOnUse"
       id="linearGradient2927"
       xlink:href="#linearGradient3696-8"
       inkscape:collect="always" />
    <linearGradient
       y2="657.38831"
       x2="357.92072"
       y1="589.32819"
       x1="357.92072"
       gradientTransform="translate(6.4720239,-19.284364)"
       gradientUnits="userSpaceOnUse"
       id="linearGradient2919"
       xlink:href="#linearGradient3696"
       inkscape:collect="always" />
    <linearGradient
       y2="586.22162"
       x2="279.49557"
       y1="722.70312"
       x1="279.49557"
       gradientTransform="matrix(0.64186016,0,0,0.64186015,259.81394,258.39622)"
       gradientUnits="userSpaceOnUse"
       id="linearGradient2915"
       xlink:href="#linearGradient3696-8"
       inkscape:collect="always" />
    <linearGradient
       y2="657.38831"
       x2="357.92072"
       y1="589.32819"
       x1="357.92072"
       gradientTransform="translate(6.4720239,-19.284364)"
       gradientUnits="userSpaceOnUse"
       id="linearGradient3777"
       xlink:href="#linearGradient3696"
       inkscape:collect="always" />
    <linearGradient
       y2="586.22162"
       x2="279.49557"
       y1="722.70312"
       x1="279.49557"
       gradientTransform="matrix(0.64186016,0,0,0.64186015,259.81394,258.39622)"
       gradientUnits="userSpaceOnUse"
       id="linearGradient3773"
       xlink:href="#linearGradient3696-8"
       inkscape:collect="always" />
    <linearGradient
       y2="581.06134"
       x2="279.49557"
       y1="648.06909"
       x1="279.49557"
       gradientTransform="matrix(0.64186016,0,0,0.64186015,259.81394,258.39622)"
       gradientUnits="userSpaceOnUse"
       id="linearGradient3769"
       xlink:href="#linearGradient3696-8"
       inkscape:collect="always" />
    <linearGradient
       y2="689.40601"
       x2="357.92072"
       y1="589.32819"
       x1="357.92072"
       gradientTransform="translate(6.4720239,-19.284364)"
       gradientUnits="userSpaceOnUse"
       id="linearGradient3767"
       xlink:href="#linearGradient3696"
       inkscape:collect="always" />
    <linearGradient
       inkscape:collect="always"
       xlink:href="#linearGradient3696-8"
       id="linearGradient3730"
       gradientUnits="userSpaceOnUse"
       gradientTransform="matrix(0.64186016,0,0,0.64186015,259.81394,258.39622)"
       x1="279.49557"
       y1="648.06909"
       x2="279.49557"
       y2="581.06134" />
    <linearGradient
       id="linearGradient3722">
      <stop
         id="stop3724"
         offset="0"
         style="stop-color:#000000;stop-opacity:1;" />
      <stop
         id="stop3726"
         offset="1"
         style="stop-color:#36890a;stop-opacity:1;" />
    </linearGradient>
    <linearGradient
       gradientTransform="translate(6.4720239,-19.284364)"
       gradientUnits="userSpaceOnUse"
       y2="741.99738"
       x2="359.20053"
       y1="589.32819"
       x1="357.92072"
       id="linearGradient3720"
       xlink:href="#linearGradient3696-8"
       inkscape:collect="always" />
    <linearGradient
       id="linearGradient3696-8">
      <stop
         id="stop3698-2"
         offset="0"
         style="stop-color:#000000;stop-opacity:1;" />
      <stop
         id="stop3700-0"
         offset="1"
         style="stop-color:#36890a;stop-opacity:1;" />
    </linearGradient>
    <linearGradient
       gradientTransform="translate(6.4720239,-19.284364)"
       gradientUnits="userSpaceOnUse"
       y2="741.99738"
       x2="359.20053"
       y1="589.32819"
       x1="357.92072"
       id="linearGradient3702-6"
       xlink:href="#linearGradient3696-8"
       inkscape:collect="always" />
    <inkscape:perspective
       sodipodi:type="inkscape:persp3d"
       inkscape:vp_x="0 : 0.5 : 1"
       inkscape:vp_y="0 : 1000 : 0"
       inkscape:vp_z="1 : 0.5 : 1"
       inkscape:persp3d-origin="0.5 : 0.33333333 : 1"
       id="perspective3712" />
    <linearGradient
       gradientTransform="translate(6.4720239,-19.284364)"
       gradientUnits="userSpaceOnUse"
       y2="689.40601"
       x2="357.92072"
       y1="589.32819"
       x1="357.92072"
       id="linearGradient3702"
       xlink:href="#linearGradient3696"
       inkscape:collect="always" />
    <inkscape:perspective
       sodipodi:type="inkscape:persp3d"
       inkscape:vp_x="0 : 0.5 : 1"
       inkscape:vp_y="0 : 1000 : 0"
       inkscape:vp_z="1 : 0.5 : 1"
       inkscape:persp3d-origin="0.5 : 0.33333333 : 1"
       id="perspective2907" />
    <radialGradient
       r="132.9715"
       fy="663.65607"
       fx="313.43893"
       cy="663.65607"
       cx="313.43893"
       gradientTransform="matrix(2.71129,-3.690706,3.3628091,3.8962979,-3721.8894,-1777.4129)"
       gradientUnits="userSpaceOnUse"
       id="radialGradient3857"
       xlink:href="#linearGradient4352"
       inkscape:collect="always" />
    <linearGradient
       y2="526.40344"
       x2="287.28848"
       y1="319.79956"
       x1="248.9016"
       gradientTransform="matrix(1.0260702,0,0,1,-970.17789,-1101.3772)"
       gradientUnits="userSpaceOnUse"
       id="linearGradient3855"
       xlink:href="#linearGradient4364"
       inkscape:collect="always" />
    <linearGradient
       id="linearGradient4352-2">
      <stop
         id="stop4354-0"
         offset="0"
         style="stop-color:#ffff4f;stop-opacity:0.82745099;" />
      <stop
         id="stop4356-0"
         offset="1"
         style="stop-color:#42b30b;stop-opacity:0;" />
    </linearGradient>
    <filter
       color-interpolation-filters="sRGB"
       inkscape:menu-tooltip="Overlays a semi-transparent shifted copy to a blurred one"
       inkscape:menu="Shadows and Glows"
       inkscape:label="Fuzzy Glow"
       id="filter3677-1">
      <feOffset
         in="SourceGraphic"
         result="result11"
         dy="4"
         dx="4"
         id="feOffset3679-3" />
      <feGaussianBlur
         result="result8"
         stdDeviation="4"
         id="feGaussianBlur3681-0" />
      <feComposite
         operator="in"
         in="SourceGraphic"
         result="result9"
         in2="result8"
         id="feComposite3683-1" />
      <feBlend
         mode="darken"
         in="result9"
         in2="result8"
         id="feBlend3685-9" />
    </filter>
    <linearGradient
       id="linearGradient4364-9">
      <stop
         id="stop4366-0"
         offset="0"
         style="stop-color:#ffffff;stop-opacity:1;" />
      <stop
         id="stop4368-5"
         offset="1"
         style="stop-color:#42b30b;stop-opacity:0;" />
    </linearGradient>
    <inkscape:perspective
       sodipodi:type="inkscape:persp3d"
       inkscape:vp_x="0 : 0.5 : 1"
       inkscape:vp_y="0 : 1000 : 0"
       inkscape:vp_z="1 : 0.5 : 1"
       inkscape:persp3d-origin="0.5 : 0.33333333 : 1"
       id="perspective3728" />
    <filter
       color-interpolation-filters="sRGB"
       inkscape:menu-tooltip="Overlays a semi-transparent shifted copy to a blurred one"
       inkscape:menu="Shadows and Glows"
       inkscape:label="Fuzzy Glow"
       id="filter3677">
      <feOffset
         in="SourceGraphic"
         result="result11"
         dy="4"
         dx="4"
         id="feOffset3679" />
      <feGaussianBlur
         result="result8"
         stdDeviation="4"
         id="feGaussianBlur3681" />
      <feComposite
         operator="in"
         in="SourceGraphic"
         result="result9"
         in2="result8"
         id="feComposite3683" />
      <feBlend
         mode="darken"
         in="result9"
         in2="result8"
         id="feBlend3685" />
    </filter>
    <filter
       color-interpolation-filters="sRGB"
       inkscape:menu-tooltip="Glow of object's own color at the edges"
       inkscape:menu="Shadows and Glows"
       inkscape:label="Glow"
       id="filter3665">
      <feGaussianBlur
         result="result91"
         stdDeviation="5"
         id="feGaussianBlur3667" />
      <feComposite
         operator="over"
         in="SourceGraphic"
         in2="result91"
         id="feComposite3669" />
    </filter>
    <inkscape:perspective
       sodipodi:type="inkscape:persp3d"
       inkscape:vp_x="0 : 0.5 : 1"
       inkscape:vp_y="0 : 1000 : 0"
       inkscape:vp_z="1 : 0.5 : 1"
       inkscape:persp3d-origin="0.5 : 0.33333333 : 1"
       id="perspective3648" />
    <inkscape:perspective
       sodipodi:type="inkscape:persp3d"
       inkscape:vp_x="0 : 0.5 : 1"
       inkscape:vp_y="0 : 1000 : 0"
       inkscape:vp_z="1 : 0.5 : 1"
       inkscape:persp3d-origin="0.5 : 0.33333333 : 1"
       id="perspective3883" />
    <inkscape:perspective
       sodipodi:type="inkscape:persp3d"
       inkscape:vp_x="0 : 0.5 : 1"
       inkscape:vp_y="0 : 1000 : 0"
       inkscape:vp_z="1 : 0.5 : 1"
       inkscape:persp3d-origin="0.5 : 0.33333333 : 1"
       id="perspective3852-8" />
    <inkscape:perspective
       sodipodi:type="inkscape:persp3d"
       inkscape:vp_x="0 : 0.5 : 1"
       inkscape:vp_y="0 : 1000 : 0"
       inkscape:vp_z="1 : 0.5 : 1"
       inkscape:persp3d-origin="0.5 : 0.33333333 : 1"
       id="perspective3852" />
    <filter
       color-interpolation-filters="sRGB"
       inkscape:menu-tooltip="Glow of object's own color at the edges"
       inkscape:menu="Shadows and Glows"
       inkscape:label="Glow"
       id="filter3838">
      <feGaussianBlur
         result="result91"
         stdDeviation="5"
         id="feGaussianBlur3840" />
      <feComposite
         operator="over"
         in="SourceGraphic"
         in2="result91"
         id="feComposite3842" />
    </filter>
    <linearGradient
       id="linearGradient4499-2">
      <stop
         id="stop4501-9"
         offset="0"
         style="stop-color:#000000;stop-opacity:0.80172414;" />
      <stop
         id="stop4503-6"
         offset="1"
         style="stop-color:#000000;stop-opacity:0.65517241;" />
    </linearGradient>
    <linearGradient
       gradientUnits="userSpaceOnUse"
       y2="659.21875"
       x2="320.67188"
       y1="605.5625"
       x1="320.67188"
       id="linearGradient4505-6"
       xlink:href="#linearGradient4499-2"
       inkscape:collect="always" />
    <inkscape:perspective
       sodipodi:type="inkscape:persp3d"
       inkscape:vp_x="0 : 0.5 : 1"
       inkscape:vp_y="0 : 1000 : 0"
       inkscape:vp_z="1 : 0.5 : 1"
       inkscape:persp3d-origin="0.5 : 0.33333333 : 1"
       id="perspective3808" />
    <inkscape:perspective
       sodipodi:type="inkscape:persp3d"
       inkscape:vp_x="0 : 0.5 : 1"
       inkscape:vp_y="0 : 1000 : 0"
       inkscape:vp_z="1 : 0.5 : 1"
       inkscape:persp3d-origin="0.5 : 0.33333333 : 1"
       id="perspective3786" />
    <radialGradient
       r="132.9715"
       fy="663.65607"
       fx="313.43893"
       cy="663.65607"
       cx="313.43893"
       gradientTransform="matrix(2.71129,-3.690706,3.3628091,3.8962979,-2713.2733,-1008.2573)"
       gradientUnits="userSpaceOnUse"
       id="radialGradient3654"
       xlink:href="#linearGradient4352"
       inkscape:collect="always" />
    <mask
       id="mask4491"
       maskUnits="userSpaceOnUse">
      <path
         inkscape:connector-curvature="0"
         sodipodi:nodetypes="ccccccccc"
         style="fill:#ffffff;fill-opacity:1;stroke:none"
         d="m 489.3125,312.71875 0,277.1875 227.6875,0 0,-277.1875 -227.6875,0 z m 109.875,13.80173 c 0,0 16.04113,173.33078 109.125,260.57328 l -213.53125,0 C 585.68233,499.48608 599.1875,326.52048 599.1875,326.52048 z"
         id="path4493" />
    </mask>
    <linearGradient
       gradientTransform="matrix(1.0260702,0,0,1,38.438152,-332.2216)"
       gradientUnits="userSpaceOnUse"
       y2="526.40344"
       x2="287.28848"
       y1="319.79956"
       x1="248.9016"
       id="linearGradient4372"
       xlink:href="#linearGradient4364"
       inkscape:collect="always" />
    <inkscape:perspective
       sodipodi:type="inkscape:persp3d"
       inkscape:vp_x="0 : 0.5 : 1"
       inkscape:vp_y="0 : 1000 : 0"
       inkscape:vp_z="1 : 0.5 : 1"
       inkscape:persp3d-origin="0.5 : 0.33333333 : 1"
       id="perspective4338" />
    <inkscape:perspective
       id="perspective10"
       inkscape:persp3d-origin="372.04724 : 350.78739 : 1"
       inkscape:vp_z="744.09448 : 526.18109 : 1"
       inkscape:vp_y="0 : 1000 : 0"
       inkscape:vp_x="0 : 526.18109 : 1"
       sodipodi:type="inkscape:persp3d" />
    <linearGradient
       id="linearGradient4352">
      <stop
         id="stop4354"
         offset="0"
         style="stop-color:#ffff4f;stop-opacity:0.82745099;" />
      <stop
         id="stop4356"
         offset="1"
         style="stop-color:#42b30b;stop-opacity:0;" />
    </linearGradient>
    <linearGradient
       id="linearGradient4364">
      <stop
         id="stop4366"
         offset="0"
         style="stop-color:#ffffff;stop-opacity:1;" />
      <stop
         id="stop4368"
         offset="1"
         style="stop-color:#42b30b;stop-opacity:0;" />
    </linearGradient>
    <linearGradient
       id="linearGradient4499">
      <stop
         id="stop4501"
         offset="0"
         style="stop-color:#000000;stop-opacity:0.80172414;" />
      <stop
         id="stop4503"
         offset="1"
         style="stop-color:#000000;stop-opacity:0.65517241;" />
    </linearGradient>
    <linearGradient
       id="linearGradient3620">
      <stop
         id="stop3622"
         offset="0"
         style="stop-color:#ffffff;stop-opacity:1;" />
      <stop
         id="stop3624"
         offset="1"
         style="stop-color:#e2e2e2;stop-opacity:1;" />
    </linearGradient>
    <linearGradient
       id="linearGradient3628">
      <stop
         id="stop3630"
         offset="0"
         style="stop-color:#e5e5e5;stop-opacity:1;" />
      <stop
         id="stop3632"
         offset="1"
         style="stop-color:#888888;stop-opacity:1;" />
    </linearGradient>
    <linearGradient
       id="linearGradient3696">
      <stop
         id="stop3698"
         offset="0"
         style="stop-color:#b6e235;stop-opacity:1;" />
      <stop
         id="stop3700"
         offset="1"
         style="stop-color:#36890a;stop-opacity:1;" />
    </linearGradient>
    <radialGradient
       inkscape:collect="always"
       xlink:href="#linearGradient4352"
       id="radialGradient4388"
       gradientUnits="userSpaceOnUse"
       gradientTransform="matrix(1.1007255,-1.4983474,1.3652283,1.5818133,-1170.4493,-722.86106)"
       cx="313.43893"
       cy="663.65607"
       fx="313.43893"
       fy="663.65607"
       r="132.9715" />
    <linearGradient
       inkscape:collect="always"
       xlink:href="#linearGradient4364"
       id="linearGradient4390"
       gradientUnits="userSpaceOnUse"
       gradientTransform="matrix(0.41656246,0,0,0.40597853,-53.313411,-448.40506)"
       x1="248.9016"
       y1="319.79956"
       x2="287.28848"
       y2="526.40344" />
    <radialGradient
       inkscape:collect="always"
       xlink:href="#linearGradient4352"
       id="radialGradient4464"
       gradientUnits="userSpaceOnUse"
       gradientTransform="matrix(1.1007255,-1.4983474,1.3652283,1.5818133,-1170.4493,-722.86106)"
       cx="313.43893"
       cy="663.65607"
       fx="313.43893"
       fy="663.65607"
       r="132.9715" />
    <linearGradient
       inkscape:collect="always"
       xlink:href="#linearGradient4364"
       id="linearGradient4466"
       gradientUnits="userSpaceOnUse"
       gradientTransform="matrix(0.41656246,0,0,0.40597853,-53.313411,-448.40506)"
       x1="248.9016"
       y1="319.79956"
       x2="287.28848"
       y2="526.40344" />
  </defs>
  <sodipodi:namedview
     id="base"
     pagecolor="#ffffff"
     bordercolor="#666666"
     borderopacity="1.0"
     inkscape:pageopacity="1"
     inkscape:pageshadow="2"
     inkscape:zoom="0.26834403"
     inkscape:cx="-1137.1723"
     inkscape:cy="249.47412"
     inkscape:document-units="cm"
     inkscape:current-layer="layer1"
     showgrid="false"
     inkscape:window-width="1920"
     inkscape:window-height="1033"
     inkscape:window-x="-3"
     inkscape:window-y="-3"
     inkscape:window-maximized="1"
     units="px" />
  <metadata
     id="metadata7">
    <rdf:RDF>
      <cc:Work
         rdf:about="">
        <dc:format>image/svg+xml</dc:format>
        <dc:type
           rdf:resource="http://purl.org/dc/dcmitype/StillImage" />
        <dc:title></dc:title>
      </cc:Work>
    </rdf:RDF>
  </metadata>
  <g
     inkscape:label="Layer 1"
     inkscape:groupmode="layer"
     id="layer1"
     transform="translate(0,1.1230253e-4)">
    <rect
       style="fill:#ffffff;fill-opacity:1;stroke:none"
       id="rect4251"
       width="688.91663"
       height="485.50989"
       x="27.409302"
       y="547.14923"
       inkscape:export-filename="/home/samtuke/fsfe/svn/dfd/trunk/artwork/sources/dfd-flyer-1-s.png"
       inkscape:export-xdpi="89.929733"
       inkscape:export-ydpi="89.929733" />
    <flowRoot
       xml:space="preserve"
       id="flowRoot3876"
       style="font-size:16px;font-style:normal;font-weight:normal;line-height:125%;letter-spacing:0px;word-spacing:0px;fill:#406809;fill-opacity:1;stroke:none;font-family:Sans"
       transform="matrix(2.9693208,0,0,2.9693208,260.97049,221.86758)"><flowRegion
         id="flowRegion3878"><rect
           id="rect3880"
           width="166.76353"
           height="45.650356"
           x="16.769516"
           y="200.71648"
           style="font-size:16px;fill:#406809;fill-opacity:1" /></flowRegion><flowPara
         id="flowPara3882"
         style="font-size:16px;font-style:normal;font-variant:normal;font-weight:bold;font-stretch:normal;text-align:center;text-anchor:middle;fill:#406809;fill-opacity:1;font-family:Yanone Kaffeesatz;-inkscape-font-specification:Yanone Kaffeesatz Bold Italic">28th March, 2012</flowPara></flowRoot>    <flowRoot
       xml:space="preserve"
       id="flowRoot3891"
       style="font-size:14px;font-style:normal;font-variant:normal;font-weight:normal;font-stretch:normal;line-height:125%;letter-spacing:0px;word-spacing:0px;fill:#800080;fill-opacity:1;stroke:none;font-family:Yanone Kaffeesatz;-inkscape-font-specification:Yanone Kaffeesatz"
       transform="matrix(3.086701,0,0,3.086701,22.63266,253.12882)"><flowRegion
         id="flowRegion3893"><rect
           id="rect3895"
           width="204.02914"
           height="13.974596"
           x="16.769518"
           y="229.59732"
           style="font-style:normal;font-variant:normal;font-weight:normal;font-stretch:normal;fill:#800080;fill-opacity:1;font-family:Yanone Kaffeesatz;-inkscape-font-specification:Yanone Kaffeesatz" /></flowRegion><flowPara
         id="flowPara3897"
         style="font-size:12px;font-style:normal;font-variant:normal;font-weight:normal;font-stretch:normal;fill:#800080;fill-opacity:1;font-family:Yanone Kaffeesatz;-inkscape-font-specification:Yanone Kaffeesatz">http://documentfreedom.org</flowPara></flowRoot>    <flowRoot
       xml:space="preserve"
       id="flowRoot3014"
       style="font-size:14px;font-style:normal;font-weight:normal;text-align:end;line-height:125%;letter-spacing:0px;word-spacing:0px;text-anchor:end;fill:#000000;fill-opacity:1;stroke:none;font-family:Sans"
       transform="matrix(3.2437207,0,0,3.2437207,-464.10976,443.5646)"><flowRegion
         id="flowRegion3016"><rect
           id="rect3018"
           width="192.84946"
           height="65.214798"
           x="160.24207"
           y="63.765415"
           style="text-align:end;text-anchor:end;fill:#000000;fill-opacity:1" /></flowRegion><flowPara
         id="flowPara3020"
         style="font-size:12px;font-style:normal;font-variant:normal;font-weight:normal;font-stretch:normal;fill:#000000;fill-opacity:1;font-family:Yanone Kaffeesatz;-inkscape-font-specification:Yanone Kaffeesatz">Celebrating information </flowPara><flowPara
         style="font-size:12px;font-style:normal;font-variant:normal;font-weight:normal;font-stretch:normal;fill:#000000;fill-opacity:1;font-family:Yanone Kaffeesatz;-inkscape-font-specification:Yanone Kaffeesatz"
         id="flowPara3801">accessibility and raising</flowPara><flowPara
         style="font-size:12px;font-style:normal;font-variant:normal;font-weight:normal;font-stretch:normal;fill:#000000;fill-opacity:1;font-family:Yanone Kaffeesatz;-inkscape-font-specification:Yanone Kaffeesatz"
         id="flowPara3803"> awareness of Open Standards</flowPara></flowRoot>    <flowRoot
       xml:space="preserve"
       id="flowRoot3022"
       style="font-size:14px;font-style:normal;font-weight:normal;line-height:125%;letter-spacing:0px;word-spacing:0px;fill:#000000;fill-opacity:1;stroke:none;font-family:Sans"
       transform="matrix(2.8086357,0,0,2.8086357,-425.06282,541.80204)"><flowRegion
         id="flowRegion3024"><rect
           id="rect3026"
           width="190.98618"
           height="37.265598"
           x="177.94322"
           y="134.57005" /></flowRegion><flowPara
         id="flowPara3028"
         style="font-size:13.18560219px;font-style:normal;font-variant:normal;font-weight:normal;font-stretch:normal;fill:#406809;fill-opacity:1;font-family:Yanone Kaffeesatz;-inkscape-font-specification:Yanone Kaffeesatz">Liberate your documents!</flowPara></flowRoot>    <image
       y="895.37292"
       x="570.12708"
       id="image5281"
       xlink:href="data:image/png;base64,iVBORw0KGgoAAAANSUhEUgAAAJsAAACbCAYAAAB1YemMAAAABHNCSVQICAgIfAhkiAAAA5xJREFU eJzt3VGO3CAQRdE4yv633NkAIyFBLrhzzmeUcXvaT4gaU/B8Pp/PLwj8Pn0D/D+EjYywkRE2Mn9G //g8T30fP5qtX0b3vLv2OfW9rHwHp4zu2chGRtjICBsZYSMzLBBGihcNuye4RdEwctOE/qbnZmQj I2xkhI2MsJGZLhBGVia4uyeuo+ut3N+3FCsjp56bkY2MsJERNjLCRmapQDhldoI7WzTMTnpvWrL0 xtYRIxsZYSMjbGSEjcwrC4SVtwW7i4HdbxreOPGfZWQjI2xkhI2MsJFZKhBuWiKzci8rxcWpNf4r n3vquRnZyAgbGWEjI2xkpguEm3bImbV7OdHs9Xb/vxU3PTcjGxlhIyNsZISNzLBA+OZlLrNONRXf 1COxm5GNjLCRETYywkbmmT0obfca/9nPKHoBirMWil6FU83bs4xsZISNjLCRETYyS+cgjCaVxfKa bz7foNj+dcVKEWJkIyNsZISNjLCRGb5B2P2X6FOK3Y52FwOn+hKKXgojGxlhIyNsZISNzPZtTotJ 76mtRU8VF0XRVfQ+GNnICBsZYSMjbGSmm5RXJrPF0qGb/so+69QbmFPP18hGRtjICBsZYSMzvcTo piU3K9cbObUs6qZG4+JnjWxkhI2MsJERNjJXnaR8U//CSNHTsPKzNxUNI0Y2MsJGRtjICBuZpEA4 dX7ArJUdmmYVE/Xdy6Jsc8prCRsZYSMjbGSSAuH29fxFn8OpnaFuahA3spERNjLCRkbYyCw1Kd+0 Z38xAS+aqE8ts5r93Va+PyMbGWEjI2xkhI3MsEDYvf3mTQeM7V7qUxwMN2t3n4MeBF5L2MgIGxlh IzP9BmHFGw9e2z05LnYs2k0PAq8lbGSEjYywkdl+kvLSzRw64femyfZNOzntfqtgZCMjbGSEjYyw kUneIMwqltzcXly88SRq5yBwHWEjI2xkhI3MUg9CYaVR9tSSoJHirUxRSGhS5hWEjYywkRE2MtPb nH7LWQYrn1ucW1A0ap+6npGNjLCRETYywkZm6RyEmyazheINwqnrFc/DyEZG2MgIGxlhI5MclHbK TT0DK9cb2b38p9iu1chGRtjICBsZYSPzygLhjY3BNzUV7/5cTcpcR9jICBsZYSOzVCDctEyo+Et+ MVHfvYypOEBulpGNjLCRETYywkZmukC4fWejYnJcFETF77abNwhcR9jICBsZYSMzPCgN/gUjGxlh IyNsZISNzF/Jnh1L98N/sgAAAABJRU5ErkJggg== "
       width="111.10065"
       height="111.10065" />
    <flowRoot
       xml:space="preserve"
       id="flowRoot3837"
       style="font-size:40px;font-style:normal;font-variant:normal;font-weight:normal;font-stretch:normal;line-height:125%;letter-spacing:0px;word-spacing:0px;fill:#406809;fill-opacity:1;stroke:none;font-family:Yanone Kaffeesatz;-inkscape-font-specification:Yanone Kaffeesatz"
       transform="matrix(3.0850488,0,0,3.0850488,-200.08046,509.66164)"><flowRegion
         id="flowRegion3839"><rect
           id="rect3841"
           width="327.79449"
           height="54.043159"
           x="21.213203"
           y="12.697033"
           style="font-style:normal;font-variant:normal;font-weight:normal;font-stretch:normal;fill:#406809;fill-opacity:1;font-family:Yanone Kaffeesatz;-inkscape-font-specification:Yanone Kaffeesatz" /></flowRegion><flowPara
         id="flowPara3843"
         style="font-size:24px;font-style:normal;font-variant:normal;font-weight:normal;font-stretch:normal;fill:#406809;fill-opacity:1;font-family:Yanone Kaffeesatz;-inkscape-font-specification:Yanone Kaffeesatz"><flowSpan
   style="font-style:normal;font-variant:normal;font-weight:normal;font-stretch:normal;text-align:center;text-anchor:middle;fill:#406809;fill-opacity:1;font-family:Yanone Kaffeesatz;-inkscape-font-specification:Yanone Kaffeesatz"
   id="flowSpan3025">Document Freedom </flowSpan>Day</flowPara></flowRoot>    <g
       id="g4204"
       transform="matrix(1.8516776,0,0,1.8516776,76.39734,660.84604)">
      <g
         transform="translate(-24.593753,290.74923)"
         inkscape:label="elements"
         id="layer3-9">
        <g
           transform="matrix(1.0007157,0,0,1.0007157,-0.01759868,0.11504716)"
           inkscape:export-ydpi="89.910545"
           inkscape:export-xdpi="89.910545"
           inkscape:export-filename="/home/samtuke/fsfe/dfd/dove-header.png"
           id="g3307">
          <rect
             y="-290.02652"
             x="25.218494"
             height="128.64917"
             width="110.76917"
             id="rect3112"
             style="fill:#42b30b;fill-opacity:1;stroke:#5d5d5d;stroke-width:0.67930615;stroke-miterlimit:4;stroke-opacity:1;stroke-dasharray:none"
             ry="7.0710001" />
          <rect
             y="-288.01782"
             x="27.227177"
             height="124.63185"
             width="106.75175"
             id="rect3114"
             style="fill:url(#radialGradient4388);fill-opacity:1;stroke:#cbcbcb;stroke-width:0.87615907;stroke-miterlimit:4;stroke-opacity:1;stroke-dasharray:none"
             ry="5.3709998" />
          <path
             inkscape:connector-curvature="0"
             sodipodi:nodetypes="cccssccc"
             id="path3120"
             d="m 29.750851,-241.63851 c 0,-17.47155 0.525241,-27.31734 0.583824,-41.62462 0,-1.53966 1.31554,-2.58418 2.915333,-2.58418 31.151962,0 72.730962,0 93.703722,0 0.27981,0 0.54488,0.002 0.79551,0.006 15.10943,0.23958 -45.730935,12.04947 -62.062786,18.94064 -21.589043,1.73467 -27.048928,2.93078 -35.935595,25.26218 z"
             style="fill:url(#linearGradient4390);fill-opacity:1;stroke:none" />
          <path
             inkscape:connector-curvature="0"
             inkscape:export-ydpi="72.031548"
             inkscape:export-xdpi="72.031548"
             inkscape:export-filename="/home/ivan/Desktop/wiki.png"
             d="m 98.754404,-239.70472 c 0,0 -1.262727,1.38404 -1.262727,1.38404 -2.248849,-6.62983 -6.422129,-11.09675 -11.784116,-13.83952 0,0 19.372299,-15.04262 19.372299,-15.04262 -5.191797,8.74891 -6.348954,21.37859 -6.325456,27.4981 z m 11.728396,-12.41283 c 0,0 -4.33742,0.6308 -6.7307,7.65325 -2.04862,6.00931 -3.840794,8.24613 -5.514803,10.09465 0,0 -23.861027,24.83997 -23.861027,24.83997 0,0 -4.09599,3.79794 -9.036536,5.20144 -6.783062,1.92768 -20.214507,4.10288 -24.38636,4.60118 -4.171093,0.49871 -1.32675,2.90609 3.126307,5.55777 4.452731,2.65208 5.116692,3.96336 14.009312,-0.8421 8.892359,-4.80587 17.408261,-0.39354 35.63524,-5.63016 18.226397,-5.2362 21.930057,-19.82398 21.597657,-30.53739 -0.33249,-10.71401 1.016,-13.04518 2.08823,-13.95289 1.07223,-0.90725 5.08253,-2.15106 5.08253,-2.15106 0,0 -4.69995,-1.52824 -4.69995,-1.52824 0,0 -0.56904,-0.84998 -2.54608,-2.37425 -1.97739,-1.52423 -4.76382,-0.93217 -4.76382,-0.93217 z m -38.195601,38.97716 c -8.218077,-10.88242 -20.476843,-14.55755 -34.082913,-12.27298 0,0 23.458966,-26.55408 23.458966,-26.55408 13.651146,-2.14003 29.034955,1.20195 33.235339,15.87841 0,0 -22.130288,23.60309 -22.130288,23.60309 0,0 -0.310838,-0.42914 -0.481104,-0.65444 z"
             style="fill:#ffffff;fill-opacity:1;stroke:#5d5d5d;stroke-width:0.58410597;stroke-opacity:1"
             id="path3122" />
        </g>
      </g>
      <g
         transform="translate(-24.593753,290.74705)"
         id="layer1-5"
         inkscape:label="text" />
    </g>
    <flowRoot
       transform="matrix(2.9693208,0,0,2.9693208,260.97049,-294.13239)"
       style="font-size:16px;font-style:normal;font-weight:normal;line-height:125%;letter-spacing:0px;word-spacing:0px;fill:#406809;fill-opacity:1;stroke:none;font-family:Sans"
       id="flowRoot4396"
       xml:space="preserve"><flowRegion
         id="flowRegion4398"><rect
           style="font-size:16px;fill:#406809;fill-opacity:1"
           y="200.71648"
           x="16.769516"
           height="45.650356"
           width="166.76353"
           id="rect4400" /></flowRegion><flowPara
         style="font-size:16px;font-style:normal;font-variant:normal;font-weight:bold;font-stretch:normal;text-align:center;text-anchor:middle;fill:#406809;fill-opacity:1;font-family:Yanone Kaffeesatz;-inkscape-font-specification:Yanone Kaffeesatz Bold Italic"
         id="flowPara4402">28th March, 2012</flowPara></flowRoot>    <flowRoot
       transform="matrix(3.086701,0,0,3.086701,22.63266,-262.87115)"
       style="font-size:14px;font-style:normal;font-variant:normal;font-weight:normal;font-stretch:normal;line-height:125%;letter-spacing:0px;word-spacing:0px;fill:#800080;fill-opacity:1;stroke:none;font-family:Yanone Kaffeesatz;-inkscape-font-specification:Yanone Kaffeesatz"
       id="flowRoot4404"
       xml:space="preserve"><flowRegion
         id="flowRegion4406"><rect
           style="font-style:normal;font-variant:normal;font-weight:normal;font-stretch:normal;fill:#800080;fill-opacity:1;font-family:Yanone Kaffeesatz;-inkscape-font-specification:Yanone Kaffeesatz"
           y="229.59732"
           x="16.769518"
           height="13.974596"
           width="204.02914"
           id="rect4408" /></flowRegion><flowPara
         style="font-size:12px;font-style:normal;font-variant:normal;font-weight:normal;font-stretch:normal;fill:#800080;fill-opacity:1;font-family:Yanone Kaffeesatz;-inkscape-font-specification:Yanone Kaffeesatz"
         id="flowPara4410">http://documentfreedom.org</flowPara></flowRoot>    <flowRoot
       transform="matrix(3.2437207,0,0,3.2437207,-464.10976,-72.435369)"
       style="font-size:14px;font-style:normal;font-weight:normal;text-align:end;line-height:125%;letter-spacing:0px;word-spacing:0px;text-anchor:end;fill:#000000;fill-opacity:1;stroke:none;font-family:Sans"
       id="flowRoot4412"
       xml:space="preserve"><flowRegion
         id="flowRegion4414"><rect
           style="text-align:end;text-anchor:end;fill:#000000;fill-opacity:1"
           y="63.765415"
           x="160.24207"
           height="65.214798"
           width="192.84946"
           id="rect4416" /></flowRegion><flowPara
         style="font-size:12px;font-style:normal;font-variant:normal;font-weight:normal;font-stretch:normal;fill:#000000;fill-opacity:1;font-family:Yanone Kaffeesatz;-inkscape-font-specification:Yanone Kaffeesatz"
         id="flowPara4418">Celebrating information </flowPara><flowPara
         id="flowPara4420"
         style="font-size:12px;font-style:normal;font-variant:normal;font-weight:normal;font-stretch:normal;fill:#000000;fill-opacity:1;font-family:Yanone Kaffeesatz;-inkscape-font-specification:Yanone Kaffeesatz">accessibility and raising</flowPara><flowPara
         id="flowPara4422"
         style="font-size:12px;font-style:normal;font-variant:normal;font-weight:normal;font-stretch:normal;fill:#000000;fill-opacity:1;font-family:Yanone Kaffeesatz;-inkscape-font-specification:Yanone Kaffeesatz"> awareness of Open Standards</flowPara></flowRoot>    <flowRoot
       transform="matrix(2.8086357,0,0,2.8086357,-425.06282,25.802072)"
       style="font-size:14px;font-style:normal;font-weight:normal;line-height:125%;letter-spacing:0px;word-spacing:0px;fill:#000000;fill-opacity:1;stroke:none;font-family:Sans"
       id="flowRoot4424"
       xml:space="preserve"><flowRegion
         id="flowRegion4426"><rect
           y="134.57005"
           x="177.94322"
           height="37.265598"
           width="190.98618"
           id="rect4428" /></flowRegion><flowPara
         style="font-size:13.18560219px;font-style:normal;font-variant:normal;font-weight:normal;font-stretch:normal;fill:#406809;fill-opacity:1;font-family:Yanone Kaffeesatz;-inkscape-font-specification:Yanone Kaffeesatz"
         id="flowPara4430">Liberate your documents!</flowPara></flowRoot>    <image
       height="111.10065"
       width="111.10065"
       xlink:href="data:image/png;base64,iVBORw0KGgoAAAANSUhEUgAAAJsAAACbCAYAAAB1YemMAAAABHNCSVQICAgIfAhkiAAAA5xJREFU eJzt3VGO3CAQRdE4yv633NkAIyFBLrhzzmeUcXvaT4gaU/B8Pp/PLwj8Pn0D/D+EjYywkRE2Mn9G //g8T30fP5qtX0b3vLv2OfW9rHwHp4zu2chGRtjICBsZYSMzLBBGihcNuye4RdEwctOE/qbnZmQj I2xkhI2MsJGZLhBGVia4uyeuo+ut3N+3FCsjp56bkY2MsJERNjLCRmapQDhldoI7WzTMTnpvWrL0 xtYRIxsZYSMjbGSEjcwrC4SVtwW7i4HdbxreOPGfZWQjI2xkhI2MsJFZKhBuWiKzci8rxcWpNf4r n3vquRnZyAgbGWEjI2xkpguEm3bImbV7OdHs9Xb/vxU3PTcjGxlhIyNsZISNzLBA+OZlLrNONRXf 1COxm5GNjLCRETYywkbmmT0obfca/9nPKHoBirMWil6FU83bs4xsZISNjLCRETYyS+cgjCaVxfKa bz7foNj+dcVKEWJkIyNsZISNjLCRGb5B2P2X6FOK3Y52FwOn+hKKXgojGxlhIyNsZISNzPZtTotJ 76mtRU8VF0XRVfQ+GNnICBsZYSMjbGSmm5RXJrPF0qGb/so+69QbmFPP18hGRtjICBsZYSMzvcTo piU3K9cbObUs6qZG4+JnjWxkhI2MsJERNjJXnaR8U//CSNHTsPKzNxUNI0Y2MsJGRtjICBuZpEA4 dX7ArJUdmmYVE/Xdy6Jsc8prCRsZYSMjbGSSAuH29fxFn8OpnaFuahA3spERNjLCRkbYyCw1Kd+0 Z38xAS+aqE8ts5r93Va+PyMbGWEjI2xkhI3MsEDYvf3mTQeM7V7qUxwMN2t3n4MeBF5L2MgIGxlh IzP9BmHFGw9e2z05LnYs2k0PAq8lbGSEjYywkdl+kvLSzRw64femyfZNOzntfqtgZCMjbGSEjYyw kUneIMwqltzcXly88SRq5yBwHWEjI2xkhI3MUg9CYaVR9tSSoJHirUxRSGhS5hWEjYywkRE2MtPb nH7LWQYrn1ucW1A0ap+6npGNjLCRETYywkZm6RyEmyazheINwqnrFc/DyEZG2MgIGxlhI5MclHbK TT0DK9cb2b38p9iu1chGRtjICBsZYSPzygLhjY3BNzUV7/5cTcpcR9jICBsZYSOzVCDctEyo+Et+ MVHfvYypOEBulpGNjLCRETYywkZmukC4fWejYnJcFETF77abNwhcR9jICBsZYSMzPCgN/gUjGxlh IyNsZISNzF/Jnh1L98N/sgAAAABJRU5ErkJggg== "
       id="image4432"
       x="570.12708"
       y="379.37296" />
    <flowRoot
       transform="matrix(3.0850488,0,0,3.0850488,-200.08046,-6.3383294)"
       style="font-size:40px;font-style:normal;font-variant:normal;font-weight:normal;font-stretch:normal;line-height:125%;letter-spacing:0px;word-spacing:0px;fill:#406809;fill-opacity:1;stroke:none;font-family:Yanone Kaffeesatz;-inkscape-font-specification:Yanone Kaffeesatz"
       id="flowRoot4436"
       xml:space="preserve"><flowRegion
         id="flowRegion4438"><rect
           style="font-style:normal;font-variant:normal;font-weight:normal;font-stretch:normal;fill:#406809;fill-opacity:1;font-family:Yanone Kaffeesatz;-inkscape-font-specification:Yanone Kaffeesatz"
           y="12.697033"
           x="21.213203"
           height="54.043159"
           width="327.79449"
           id="rect4440" /></flowRegion><flowPara
         style="font-size:24px;font-style:normal;font-variant:normal;font-weight:normal;font-stretch:normal;fill:#406809;fill-opacity:1;font-family:Yanone Kaffeesatz;-inkscape-font-specification:Yanone Kaffeesatz"
         id="flowPara4442"><flowSpan
   id="flowSpan4444"
   style="font-style:normal;font-variant:normal;font-weight:normal;font-stretch:normal;text-align:center;text-anchor:middle;fill:#406809;fill-opacity:1;font-family:Yanone Kaffeesatz;-inkscape-font-specification:Yanone Kaffeesatz">Document Freedom </flowSpan>Day</flowPara></flowRoot>    <g
       transform="matrix(1.8516776,0,0,1.8516776,76.39734,144.84607)"
       id="g4446">
      <g
         id="g4448"
         inkscape:label="elements"
         transform="translate(-24.593753,290.74923)">
        <g
           id="g4450"
           inkscape:export-filename="/home/samtuke/fsfe/dfd/dove-header.png"
           inkscape:export-xdpi="89.910545"
           inkscape:export-ydpi="89.910545"
           transform="matrix(1.0007157,0,0,1.0007157,-0.01759868,0.11504716)">
          <rect
             ry="7.0710001"
             style="fill:#42b30b;fill-opacity:1;stroke:#5d5d5d;stroke-width:0.67930615;stroke-miterlimit:4;stroke-opacity:1;stroke-dasharray:none"
             id="rect4452"
             width="110.76917"
             height="128.64917"
             x="25.218494"
             y="-290.02652" />
          <rect
             ry="5.3709998"
             style="fill:url(#radialGradient4464);fill-opacity:1;stroke:#cbcbcb;stroke-width:0.87615907;stroke-miterlimit:4;stroke-opacity:1;stroke-dasharray:none"
             id="rect4454"
             width="106.75175"
             height="124.63185"
             x="27.227177"
             y="-288.01782" />
          <path
             style="fill:url(#linearGradient4466);fill-opacity:1;stroke:none"
             d="m 29.750851,-241.63851 c 0,-17.47155 0.525241,-27.31734 0.583824,-41.62462 0,-1.53966 1.31554,-2.58418 2.915333,-2.58418 31.151962,0 72.730962,0 93.703722,0 0.27981,0 0.54488,0.002 0.79551,0.006 15.10943,0.23958 -45.730935,12.04947 -62.062786,18.94064 -21.589043,1.73467 -27.048928,2.93078 -35.935595,25.26218 z"
             id="path4456"
             sodipodi:nodetypes="cccssccc"
             inkscape:connector-curvature="0" />
          <path
             id="path4458"
             style="fill:#ffffff;fill-opacity:1;stroke:#5d5d5d;stroke-width:0.58410597;stroke-opacity:1"
             d="m 98.754404,-239.70472 c 0,0 -1.262727,1.38404 -1.262727,1.38404 -2.248849,-6.62983 -6.422129,-11.09675 -11.784116,-13.83952 0,0 19.372299,-15.04262 19.372299,-15.04262 -5.191797,8.74891 -6.348954,21.37859 -6.325456,27.4981 z m 11.728396,-12.41283 c 0,0 -4.33742,0.6308 -6.7307,7.65325 -2.04862,6.00931 -3.840794,8.24613 -5.514803,10.09465 0,0 -23.861027,24.83997 -23.861027,24.83997 0,0 -4.09599,3.79794 -9.036536,5.20144 -6.783062,1.92768 -20.214507,4.10288 -24.38636,4.60118 -4.171093,0.49871 -1.32675,2.90609 3.126307,5.55777 4.452731,2.65208 5.116692,3.96336 14.009312,-0.8421 8.892359,-4.80587 17.408261,-0.39354 35.63524,-5.63016 18.226397,-5.2362 21.930057,-19.82398 21.597657,-30.53739 -0.33249,-10.71401 1.016,-13.04518 2.08823,-13.95289 1.07223,-0.90725 5.08253,-2.15106 5.08253,-2.15106 0,0 -4.69995,-1.52824 -4.69995,-1.52824 0,0 -0.56904,-0.84998 -2.54608,-2.37425 -1.97739,-1.52423 -4.76382,-0.93217 -4.76382,-0.93217 z m -38.195601,38.97716 c -8.218077,-10.88242 -20.476843,-14.55755 -34.082913,-12.27298 0,0 23.458966,-26.55408 23.458966,-26.55408 13.651146,-2.14003 29.034955,1.20195 33.235339,15.87841 0,0 -22.130288,23.60309 -22.130288,23.60309 0,0 -0.310838,-0.42914 -0.481104,-0.65444 z"
             inkscape:export-filename="/home/ivan/Desktop/wiki.png"
             inkscape:export-xdpi="72.031548"
             inkscape:export-ydpi="72.031548"
             inkscape:connector-curvature="0" />
        </g>
      </g>
      <g
         inkscape:label="text"
         id="g4460"
         transform="translate(-24.593753,290.74705)" />
    </g>
  </g>
  <g
     inkscape:groupmode="layer"
     id="layer3"
     inkscape:label="logo"
     transform="translate(0,790.1575)" />
  <g
     inkscape:groupmode="layer"
     id="layer7"
     inkscape:label="date"
     transform="translate(0,790.1575)" />
  <g
     inkscape:groupmode="layer"
     id="layer8"
     inkscape:label="url"
     transform="translate(0,790.1575)" />
  <g
     inkscape:groupmode="layer"
     id="layer6"
     inkscape:label="text"
     transform="translate(0,790.1575)">
    <flowRoot
       xml:space="preserve"
       id="flowRoot3030"
       style="font-size:14px;font-style:normal;font-weight:normal;line-height:125%;letter-spacing:0px;word-spacing:0px;fill:#000000;fill-opacity:1;stroke:none;font-family:Sans"><flowRegion
         id="flowRegion3032"><rect
           id="rect3034"
           width="109.00187"
           height="21.427717"
           x="171.42174"
           y="133.63841" /></flowRegion><flowPara
         id="flowPara3036" /></flowRoot>  </g>
  <g
     inkscape:groupmode="layer"
     id="layer2"
     inkscape:label="qrcode"
     transform="translate(0,790.1575)" />
  <g
     inkscape:groupmode="layer"
     id="layer4"
     inkscape:label="title"
     transform="translate(0,790.1575)" />
</svg>
