<?xml version="1.0" encoding="UTF-8" standalone="no"?>
<!-- Created with Inkscape (http://www.inkscape.org/) -->

<svg
   xmlns:dc="http://purl.org/dc/elements/1.1/"
   xmlns:cc="http://creativecommons.org/ns#"
   xmlns:rdf="http://www.w3.org/1999/02/22-rdf-syntax-ns#"
   xmlns:svg="http://www.w3.org/2000/svg"
   xmlns="http://www.w3.org/2000/svg"
   xmlns:xlink="http://www.w3.org/1999/xlink"
   xmlns:sodipodi="http://sodipodi.sourceforge.net/DTD/sodipodi-0.dtd"
   xmlns:inkscape="http://www.inkscape.org/namespaces/inkscape"
   width="1052.3622"
   height="744.09448"
   id="svg5942"
   version="1.1"
   inkscape:version="0.48.4 r9939"
   sodipodi:docname="leaflet-business-inside.svg"
   inkscape:export-filename="/home/samtuke/fsfe/svn/dfd/trunk/artwork/sources/dfd-2013-a7-flier/dfd-2014-a7-front-en.png"
   inkscape:export-xdpi="300"
   inkscape:export-ydpi="300">
  <defs
     id="defs5944">
    <linearGradient
       id="linearGradient6529">
      <stop
         id="stop6531"
         offset="0"
         style="stop-color:#fffff0;stop-opacity:1;" />
      <stop
         id="stop6533"
         offset="1"
         style="stop-color:#d1f7b9;stop-opacity:1;" />
    </linearGradient>
    <inkscape:perspective
       sodipodi:type="inkscape:persp3d"
       inkscape:vp_x="0 : 526.18109 : 1"
       inkscape:vp_y="0 : 1000 : 0"
       inkscape:vp_z="744.09448 : 526.18109 : 1"
       inkscape:persp3d-origin="372.04724 : 350.78739 : 1"
       id="perspective5950" />
    <inkscape:perspective
       id="perspective5960"
       inkscape:persp3d-origin="0.5 : 0.33333333 : 1"
       inkscape:vp_z="1 : 0.5 : 1"
       inkscape:vp_y="0 : 1000 : 0"
       inkscape:vp_x="0 : 0.5 : 1"
       sodipodi:type="inkscape:persp3d" />
    <linearGradient
       inkscape:collect="always"
       xlink:href="#linearGradient6529"
       id="linearGradient3777"
       gradientUnits="userSpaceOnUse"
       gradientTransform="matrix(0.96795146,0,0,0.96795143,234.44878,343.01893)"
       x1="357.92072"
       y1="589.32819"
       x2="354.89005"
       y2="988.33618" />
    <linearGradient
       id="linearGradient3696">
      <stop
         style="stop-color:#b6e235;stop-opacity:1;"
         offset="0"
         id="stop3698" />
      <stop
         style="stop-color:#36890a;stop-opacity:1;"
         offset="1"
         id="stop3700" />
    </linearGradient>
    <linearGradient
       inkscape:collect="always"
       xlink:href="#linearGradient3696"
       id="linearGradient5968"
       gradientUnits="userSpaceOnUse"
       gradientTransform="translate(6.4720239,-19.284364)"
       x1="357.92072"
       y1="589.32819"
       x2="357.92072"
       y2="657.38831" />
    <linearGradient
       id="linearGradient5970">
      <stop
         style="stop-color:#b6e235;stop-opacity:1;"
         offset="0"
         id="stop5972" />
      <stop
         style="stop-color:#36890a;stop-opacity:1;"
         offset="1"
         id="stop5974" />
    </linearGradient>
    <linearGradient
       inkscape:collect="always"
       xlink:href="#linearGradient3696-8"
       id="linearGradient3773"
       gradientUnits="userSpaceOnUse"
       gradientTransform="matrix(0.64186016,0,0,0.64186015,259.81394,258.39622)"
       x1="279.49557"
       y1="722.70312"
       x2="279.49557"
       y2="586.22162" />
    <linearGradient
       id="linearGradient3696-8">
      <stop
         style="stop-color:#000000;stop-opacity:1;"
         offset="0"
         id="stop3698-2" />
      <stop
         style="stop-color:#36890a;stop-opacity:1;"
         offset="1"
         id="stop3700-0" />
    </linearGradient>
    <linearGradient
       inkscape:collect="always"
       xlink:href="#linearGradient3696-8"
       id="linearGradient5980"
       gradientUnits="userSpaceOnUse"
       gradientTransform="matrix(0.64186016,0,0,0.64186015,259.81394,258.39622)"
       x1="279.49557"
       y1="722.70312"
       x2="279.49557"
       y2="586.22162" />
    <linearGradient
       id="linearGradient5982">
      <stop
         style="stop-color:#000000;stop-opacity:1;"
         offset="0"
         id="stop5984" />
      <stop
         style="stop-color:#36890a;stop-opacity:1;"
         offset="1"
         id="stop5986" />
    </linearGradient>
    <linearGradient
       y2="586.22162"
       x2="279.49557"
       y1="722.70312"
       x1="279.49557"
       gradientTransform="matrix(1.625485,0,0,1.6254849,18.939755,722.11733)"
       gradientUnits="userSpaceOnUse"
       id="linearGradient5993"
       xlink:href="#linearGradient3696-8"
       inkscape:collect="always" />
    <inkscape:perspective
       id="perspective6094"
       inkscape:persp3d-origin="0.5 : 0.33333333 : 1"
       inkscape:vp_z="1 : 0.5 : 1"
       inkscape:vp_y="0 : 1000 : 0"
       inkscape:vp_x="0 : 0.5 : 1"
       sodipodi:type="inkscape:persp3d" />
    <linearGradient
       id="linearGradient4364">
      <stop
         style="stop-color:#ffffff;stop-opacity:1;"
         offset="0"
         id="stop4366" />
      <stop
         style="stop-color:#42b30b;stop-opacity:0;"
         offset="1"
         id="stop4368" />
    </linearGradient>
    <filter
       id="filter3677"
       inkscape:label="Fuzzy Glow"
       inkscape:menu="Shadows and Glows"
       inkscape:menu-tooltip="Overlays a semi-transparent shifted copy to a blurred one"
       color-interpolation-filters="sRGB">
      <feOffset
         id="feOffset3679"
         dx="4"
         dy="4"
         result="result11"
         in="SourceGraphic" />
      <feGaussianBlur
         id="feGaussianBlur3681"
         stdDeviation="4"
         result="result8" />
      <feComposite
         id="feComposite3683"
         in2="result8"
         result="result9"
         in="SourceGraphic"
         operator="in" />
      <feBlend
         id="feBlend3685"
         in2="result8"
         in="result9"
         mode="darken" />
    </filter>
    <linearGradient
       id="linearGradient4352">
      <stop
         style="stop-color:#ffff4f;stop-opacity:0.82745099;"
         offset="0"
         id="stop4354" />
      <stop
         style="stop-color:#42b30b;stop-opacity:0;"
         offset="1"
         id="stop4356" />
    </linearGradient>
    <inkscape:perspective
       id="perspective6257"
       inkscape:persp3d-origin="0.5 : 0.33333333 : 1"
       inkscape:vp_z="1 : 0.5 : 1"
       inkscape:vp_y="0 : 1000 : 0"
       inkscape:vp_x="0 : 0.5 : 1"
       sodipodi:type="inkscape:persp3d" />
    <linearGradient
       id="linearGradient4352-6">
      <stop
         style="stop-color:#ffff4f;stop-opacity:0.82745099;"
         offset="0"
         id="stop4354-6" />
      <stop
         style="stop-color:#42b30b;stop-opacity:0;"
         offset="1"
         id="stop4356-7" />
    </linearGradient>
    <filter
       id="filter3677-2"
       inkscape:label="Fuzzy Glow"
       inkscape:menu="Shadows and Glows"
       inkscape:menu-tooltip="Overlays a semi-transparent shifted copy to a blurred one"
       color-interpolation-filters="sRGB">
      <feOffset
         id="feOffset3679-7"
         dx="4"
         dy="4"
         result="result11"
         in="SourceGraphic" />
      <feGaussianBlur
         id="feGaussianBlur3681-4"
         stdDeviation="4"
         result="result8" />
      <feComposite
         id="feComposite3683-1"
         in2="result8"
         result="result9"
         in="SourceGraphic"
         operator="in" />
      <feBlend
         id="feBlend3685-0"
         in2="result8"
         in="result9"
         mode="darken" />
    </filter>
    <linearGradient
       id="linearGradient4364-6">
      <stop
         style="stop-color:#ffffff;stop-opacity:1;"
         offset="0"
         id="stop4366-4" />
      <stop
         style="stop-color:#42b30b;stop-opacity:0;"
         offset="1"
         id="stop4368-4" />
    </linearGradient>
    <inkscape:perspective
       id="perspective6421"
       inkscape:persp3d-origin="0.5 : 0.33333333 : 1"
       inkscape:vp_z="1 : 0.5 : 1"
       inkscape:vp_y="0 : 1000 : 0"
       inkscape:vp_x="0 : 0.5 : 1"
       sodipodi:type="inkscape:persp3d" />
    <inkscape:perspective
       id="perspective6455"
       inkscape:persp3d-origin="0.5 : 0.33333333 : 1"
       inkscape:vp_z="1 : 0.5 : 1"
       inkscape:vp_y="0 : 1000 : 0"
       inkscape:vp_x="0 : 0.5 : 1"
       sodipodi:type="inkscape:persp3d" />
    <radialGradient
       inkscape:collect="always"
       xlink:href="#linearGradient4352-6-0"
       id="radialGradient6355-1"
       gradientUnits="userSpaceOnUse"
       gradientTransform="matrix(0.21881884,-0.29786409,0.27140068,0.31445673,-98.345913,895.67225)"
       cx="313.43893"
       cy="663.65607"
       fx="313.43893"
       fy="663.65607"
       r="132.9715" />
    <linearGradient
       id="linearGradient4352-6-0">
      <stop
         style="stop-color:#6cc41a;stop-opacity:1;"
         offset="0"
         id="stop4354-6-5" />
      <stop
         style="stop-color:#c6e83a;stop-opacity:1;"
         offset="1"
         id="stop4356-7-3" />
    </linearGradient>
    <linearGradient
       inkscape:collect="always"
       xlink:href="#linearGradient6529"
       id="linearGradient2912"
       gradientUnits="userSpaceOnUse"
       gradientTransform="matrix(0.29221816,0,0,0.29221815,59.586978,686.05405)"
       x1="357.92072"
       y1="589.32819"
       x2="354.89005"
       y2="988.33618" />
    <radialGradient
       inkscape:collect="always"
       xlink:href="#linearGradient4352"
       id="radialGradient3686"
       gradientUnits="userSpaceOnUse"
       gradientTransform="matrix(0.73237103,-0.99692987,0.9083587,1.0524642,-752.39138,615.20924)"
       cx="313.43893"
       cy="663.65607"
       fx="313.43893"
       fy="663.65607"
       r="132.9715" />
    <inkscape:perspective
       id="perspective3698"
       inkscape:persp3d-origin="0.5 : 0.33333333 : 1"
       inkscape:vp_z="1 : 0.5 : 1"
       inkscape:vp_y="0 : 1000 : 0"
       inkscape:vp_x="0 : 0.5 : 1"
       sodipodi:type="inkscape:persp3d" />
    <inkscape:perspective
       id="perspective3722"
       inkscape:persp3d-origin="0.5 : 0.33333333 : 1"
       inkscape:vp_z="1 : 0.5 : 1"
       inkscape:vp_y="0 : 1000 : 0"
       inkscape:vp_x="0 : 0.5 : 1"
       sodipodi:type="inkscape:persp3d" />
    <inkscape:perspective
       id="perspective3753"
       inkscape:persp3d-origin="0.5 : 0.33333333 : 1"
       inkscape:vp_z="1 : 0.5 : 1"
       inkscape:vp_y="0 : 1000 : 0"
       inkscape:vp_x="0 : 0.5 : 1"
       sodipodi:type="inkscape:persp3d" />
    <inkscape:perspective
       id="perspective3804"
       inkscape:persp3d-origin="0.5 : 0.33333333 : 1"
       inkscape:vp_z="1 : 0.5 : 1"
       inkscape:vp_y="0 : 1000 : 0"
       inkscape:vp_x="0 : 0.5 : 1"
       sodipodi:type="inkscape:persp3d" />
    <inkscape:perspective
       id="perspective2907"
       inkscape:persp3d-origin="0.5 : 0.33333333 : 1"
       inkscape:vp_z="1 : 0.5 : 1"
       inkscape:vp_y="0 : 1000 : 0"
       inkscape:vp_x="0 : 0.5 : 1"
       sodipodi:type="inkscape:persp3d" />
    <inkscape:perspective
       id="perspective2904"
       inkscape:persp3d-origin="0.5 : 0.33333333 : 1"
       inkscape:vp_z="1 : 0.5 : 1"
       inkscape:vp_y="0 : 1000 : 0"
       inkscape:vp_x="0 : 0.5 : 1"
       sodipodi:type="inkscape:persp3d" />
    <inkscape:perspective
       id="perspective2929"
       inkscape:persp3d-origin="0.5 : 0.33333333 : 1"
       inkscape:vp_z="1 : 0.5 : 1"
       inkscape:vp_y="0 : 1000 : 0"
       inkscape:vp_x="0 : 0.5 : 1"
       sodipodi:type="inkscape:persp3d" />
    <inkscape:perspective
       id="perspective2924"
       inkscape:persp3d-origin="0.5 : 0.33333333 : 1"
       inkscape:vp_z="1 : 0.5 : 1"
       inkscape:vp_y="0 : 1000 : 0"
       inkscape:vp_x="0 : 0.5 : 1"
       sodipodi:type="inkscape:persp3d" />
    <inkscape:perspective
       id="perspective3748"
       inkscape:persp3d-origin="0.5 : 0.33333333 : 1"
       inkscape:vp_z="1 : 0.5 : 1"
       inkscape:vp_y="0 : 1000 : 0"
       inkscape:vp_x="0 : 0.5 : 1"
       sodipodi:type="inkscape:persp3d" />
    <inkscape:perspective
       id="perspective4490"
       inkscape:persp3d-origin="0.5 : 0.33333333 : 1"
       inkscape:vp_z="1 : 0.5 : 1"
       inkscape:vp_y="0 : 1000 : 0"
       inkscape:vp_x="0 : 0.5 : 1"
       sodipodi:type="inkscape:persp3d" />
    <inkscape:perspective
       id="perspective4490-4"
       inkscape:persp3d-origin="0.5 : 0.33333333 : 1"
       inkscape:vp_z="1 : 0.5 : 1"
       inkscape:vp_y="0 : 1000 : 0"
       inkscape:vp_x="0 : 0.5 : 1"
       sodipodi:type="inkscape:persp3d" />
    <inkscape:perspective
       id="perspective4536"
       inkscape:persp3d-origin="0.5 : 0.33333333 : 1"
       inkscape:vp_z="1 : 0.5 : 1"
       inkscape:vp_y="0 : 1000 : 0"
       inkscape:vp_x="0 : 0.5 : 1"
       sodipodi:type="inkscape:persp3d" />
    <inkscape:perspective
       id="perspective4558"
       inkscape:persp3d-origin="0.5 : 0.33333333 : 1"
       inkscape:vp_z="1 : 0.5 : 1"
       inkscape:vp_y="0 : 1000 : 0"
       inkscape:vp_x="0 : 0.5 : 1"
       sodipodi:type="inkscape:persp3d" />
    <linearGradient
       inkscape:collect="always"
       xlink:href="#linearGradient6529"
       id="linearGradient3483"
       gradientUnits="userSpaceOnUse"
       gradientTransform="matrix(1.4163199,0,0,2.065304,-15.550046,-1256.76)"
       x1="127.75238"
       y1="771.62238"
       x2="127.75238"
       y2="1052.4729" />
    <linearGradient
       inkscape:collect="always"
       xlink:href="#linearGradient6529"
       id="linearGradient3198"
       gradientUnits="userSpaceOnUse"
       gradientTransform="matrix(2.7073463,0,0,2.0594006,352.78428,-1250.5738)"
       x1="127.75238"
       y1="771.62238"
       x2="127.75238"
       y2="1052.4729" />
    <linearGradient
       inkscape:collect="always"
       xlink:href="#linearGradient3848"
       id="linearGradient3846"
       x1="701.57483"
       y1="-99.685059"
       x2="1052.3622"
       y2="-99.685059"
       gradientUnits="userSpaceOnUse" />
    <linearGradient
       id="linearGradient3848">
      <stop
         style="stop-color:#e8fbe8;stop-opacity:1;"
         offset="0"
         id="stop3862" />
      <stop
         id="stop3852"
         offset="1"
         style="stop-color:#d2f7d2;stop-opacity:1;" />
    </linearGradient>
  </defs>
  <sodipodi:namedview
     id="base"
     pagecolor="#ffffff"
     bordercolor="#666666"
     borderopacity="1.0"
     inkscape:pageopacity="0.0"
     inkscape:pageshadow="2"
     inkscape:zoom="0.70710678"
     inkscape:cx="267.30734"
     inkscape:cy="210.17517"
     inkscape:document-units="mm"
     inkscape:current-layer="layer1"
     showgrid="false"
     inkscape:window-width="1920"
     inkscape:window-height="1009"
     inkscape:window-x="0"
     inkscape:window-y="34"
     inkscape:window-maximized="1"
     units="mm"
     borderlayer="true"
     showguides="true"
     inkscape:guide-bbox="true"
     inkscape:showpageshadow="false">
    <sodipodi:guide
       orientation="1,0"
       position="353,643"
       id="guide3127" />
    <sodipodi:guide
       orientation="1,0"
       position="706.5,791"
       id="guide3129" />
    <sodipodi:guide
       orientation="1,0"
       position="-131,490"
       id="guide3361" />
    <sodipodi:guide
       orientation="0,1"
       position="1112.9861,835.80022"
       id="guide3857" />
    <sodipodi:guide
       orientation="0,1"
       position="485.07525,415.77879"
       id="guide4063" />
    <sodipodi:guide
       orientation="0,1"
       position="825.90072,599.62655"
       id="guide4065" />
    <sodipodi:guide
       orientation="0,1"
       position="727.61288,224.15285"
       id="guide4067" />
  </sodipodi:namedview>
  <metadata
     id="metadata5947">
    <rdf:RDF>
      <cc:Work
         rdf:about="">
        <dc:format>image/svg+xml</dc:format>
        <dc:type
           rdf:resource="http://purl.org/dc/dcmitype/StillImage" />
        <dc:title />
      </cc:Work>
    </rdf:RDF>
  </metadata>
  <g
     inkscape:label="Livello 1"
     inkscape:groupmode="layer"
     id="layer1"
     transform="translate(0,-308.26763)">
    <rect
       style="fill:url(#linearGradient3198);fill-opacity:1;stroke:none"
       id="rect4302-5-3-2"
       width="711.55115"
       height="764.39368"
       x="352.78427"
       y="298.84143"
       inkscape:export-xdpi="300.0563"
       inkscape:export-ydpi="300.0563" />
    <rect
       inkscape:export-ydpi="300.0563"
       inkscape:export-xdpi="300.0563"
       y="297.09689"
       x="-15.55007"
       height="766.58484"
       width="372.24057"
       id="rect3481"
       style="opacity:0.7154471;fill:url(#linearGradient3483);fill-opacity:1;stroke:none" />
    <text
       xml:space="preserve"
       style="font-size:56px;font-style:normal;font-variant:normal;font-weight:normal;font-stretch:normal;text-align:center;line-height:100%;letter-spacing:0px;word-spacing:0px;text-anchor:middle;fill:#000000;fill-opacity:1;stroke:none;font-family:Yanone Kaffeesatz;-inkscape-font-specification:Yanone Kaffeesatz"
       x="-217.39461"
       y="428.2709"
       id="text3013"
       sodipodi:linespacing="100%"><tspan
         sodipodi:role="line"
         x="-217.39461"
         y="428.2709"
         id="tspan3389" /></text>
    <text
       sodipodi:linespacing="125%"
       id="text3017"
       y="383.23898"
       x="80.908127"
       style="font-size:56px;font-style:normal;font-variant:normal;font-weight:normal;font-stretch:normal;line-height:125%;letter-spacing:0px;word-spacing:0px;fill:#000000;fill-opacity:1;stroke:none;font-family:Yanone Kaffeesatz;-inkscape-font-specification:Yanone Kaffeesatz"
       xml:space="preserve"><tspan
         y="383.23898"
         x="80.908127"
         id="tspan3019"
         sodipodi:role="line">Innovation</tspan></text>
    <text
       xml:space="preserve"
       style="font-size:56px;font-style:normal;font-variant:normal;font-weight:normal;font-stretch:normal;line-height:125%;letter-spacing:0px;word-spacing:0px;fill:#000000;fill-opacity:1;stroke:none;font-family:Yanone Kaffeesatz;-inkscape-font-specification:Yanone Kaffeesatz"
       x="425.07178"
       y="384.06741"
       id="text3021"
       sodipodi:linespacing="125%"><tspan
         sodipodi:role="line"
         id="tspan3023"
         x="425.07178"
         y="384.06741">Lower costs</tspan></text>
    <text
       sodipodi:linespacing="125%"
       id="text3025"
       y="384.41055"
       x="756.86646"
       style="font-size:56px;font-style:normal;font-variant:normal;font-weight:normal;font-stretch:normal;line-height:125%;letter-spacing:0px;word-spacing:0px;fill:#000000;fill-opacity:1;stroke:none;font-family:Yanone Kaffeesatz;-inkscape-font-specification:Yanone Kaffeesatz"
       xml:space="preserve"><tspan
         y="384.41055"
         x="756.86646"
         id="tspan3027"
         sodipodi:role="line">New markets</tspan></text>
    <flowRoot
       xml:space="preserve"
       id="flowRoot3567"
       style="fill:black;stroke:none;stroke-opacity:1;stroke-width:1px;stroke-linejoin:miter;stroke-linecap:butt;fill-opacity:1;font-family:DejaVu Sans;font-style:normal;font-weight:normal;font-size:22px;line-height:100%;letter-spacing:-1.51999997999999992px;word-spacing:0px;-inkscape-font-specification:DejaVu Sans;font-stretch:normal;font-variant:normal;text-anchor:middle;text-align:center"><flowRegion
         id="flowRegion3569"><rect
           id="rect3571"
           width="1151.1698"
           height="770.7464"
           x="-11.313708"
           y="-13.923988" /></flowRegion><flowPara
         id="flowPara3573" /></flowRoot>    <flowRoot
       transform="translate(32.535583,-390.40935)"
       style="font-size:20px;font-style:normal;font-weight:normal;text-align:start;line-height:125%;letter-spacing:0px;word-spacing:0px;text-anchor:start;fill:#000000;fill-opacity:1;stroke:none;font-family:Sans"
       id="flowRoot3049"
       xml:space="preserve"><flowRegion
         id="flowRegion3051"><rect
           style="font-size:20px;text-align:start;text-anchor:start"
           y="838.38019"
           x="368.57144"
           height="125.99994"
           width="268.28574"
           id="rect3053" /></flowRegion><flowPara
         id="flowPara3066">Open Standards enable you to circumvent vendor lock-in and to <flowSpan
   style="font-weight:bold;text-align:start;text-anchor:start;-inkscape-font-specification:Sans Bold"
   id="flowSpan3779">chose your suppliers freely</flowSpan></flowPara></flowRoot>    <flowRoot
       xml:space="preserve"
       id="flowRoot3068"
       style="font-size:29.28334999px;font-style:normal;font-weight:normal;text-align:start;line-height:125%;letter-spacing:0px;word-spacing:0px;text-anchor:start;fill:#000000;fill-opacity:1;stroke:none;font-family:Sans"
       transform="matrix(0.68298195,0,0,0.68298195,152.00767,31.814538)"><flowRegion
         id="flowRegion3070"><rect
           style="font-size:29.28334999px;text-align:start;text-anchor:start"
           id="rect3072"
           width="380.45816"
           height="613.88605"
           x="368.57144"
           y="838.38019" /></flowRegion><flowPara
         id="flowPara3080">Open Standards provide <flowSpan
   style="font-weight:bold;text-align:start;text-anchor:start;-inkscape-font-specification:Sans Bold"
   id="flowSpan3781">interoperability</flowSpan> between staff, clients, suppliers, and departments</flowPara></flowRoot>    <flowRoot
       xml:space="preserve"
       id="flowRoot3101"
       style="font-size:20px;font-style:normal;font-weight:normal;text-align:start;line-height:125%;letter-spacing:0px;word-spacing:0px;text-anchor:start;fill:#000000;fill-opacity:1;stroke:none;font-family:Sans"
       transform="translate(-320.50391,-206.46701)"><flowRegion
         id="flowRegion3103"><rect
           style="font-size:20px;text-align:start;text-anchor:start"
           id="rect3105"
           width="264.68774"
           height="602.72784"
           x="368.57144"
           y="838.38019" /></flowRegion><flowPara
         id="flowPara3109">They are the foundation of <flowSpan
   style="font-weight:bold;text-align:start;text-anchor:start;-inkscape-font-specification:Sans Bold"
   id="flowSpan3740">cooperation </flowSpan></flowPara><flowPara
         id="flowPara3742">in modern societies.</flowPara></flowRoot>    <path
       sodipodi:end="8.1488452"
       sodipodi:start="1.8656761"
       transform="matrix(0.31748825,0,0,0.31748825,-363.80838,527.03411)"
       d="m 1252.2219,382.53336 a 13,13 0 1 1 2e-4,7e-5 L 1256,370.09448 z"
       sodipodi:ry="13"
       sodipodi:rx="13"
       sodipodi:cy="370.09448"
       sodipodi:cx="1256"
       id="path3748"
       style="fill:#599117;fill-opacity:1;stroke:none"
       sodipodi:type="arc" />
    <flowRoot
       xml:space="preserve"
       id="flowRoot3037"
       style="font-size:20px;font-style:normal;font-weight:normal;text-align:start;line-height:125%;letter-spacing:0px;word-spacing:0px;text-anchor:start;fill:#000000;fill-opacity:1;stroke:none;font-family:Sans"
       transform="translate(35.243591,-36.981732)"><flowRegion
         id="flowRegion3039"><rect
           style="font-size:20px;text-align:start;text-anchor:start"
           id="rect3041"
           width="265.57227"
           height="291.87299"
           x="368.57144"
           y="838.38019" /></flowRegion><flowPara
         id="flowPara3047">Incompatible standards allow monopolistic vendors to charge you huge fees simply to access your own data</flowPara></flowRoot>    <flowRoot
       transform="translate(-321.1582,-14.231732)"
       style="font-size:20px;font-style:normal;font-weight:normal;text-align:start;line-height:125%;letter-spacing:0px;word-spacing:0px;text-anchor:start;fill:#000000;fill-opacity:1;stroke:none;font-family:Sans"
       id="flowRoot3113"
       xml:space="preserve"><flowRegion
         id="flowRegion3115"><rect
           style="font-size:20px;text-align:start;text-anchor:start"
           y="838.38019"
           x="368.57144"
           height="590"
           width="304.28571"
           id="rect3117" /></flowRegion><flowPara
         id="flowPara3121">Open Standards ensure that you have more accessible high-end software for <flowSpan
   style="font-weight:bold;text-align:start;text-anchor:start;-inkscape-font-specification:Sans Bold"
   id="flowSpan3744">innovation</flowSpan> and <flowSpan
   style="font-weight:bold;text-align:start;text-anchor:start;-inkscape-font-specification:Sans Bold"
   id="flowSpan3746">experimentation</flowSpan></flowPara></flowRoot>    <path
       sodipodi:type="arc"
       style="fill:#599117;fill-opacity:1;stroke:none"
       id="path3757"
       sodipodi:cx="1256"
       sodipodi:cy="370.09448"
       sodipodi:rx="13"
       sodipodi:ry="13"
       d="m 1252.2219,382.53336 a 13,13 0 1 1 2e-4,7e-5 L 1256,370.09448 z"
       transform="matrix(0.31748825,0,0,0.31748825,-363.80838,720.03411)"
       sodipodi:start="1.8656761"
       sodipodi:end="8.1488452" />
    <flowRoot
       transform="translate(-321.1582,-390.31797)"
       style="font-size:20px;font-style:normal;font-weight:normal;text-align:start;line-height:125%;letter-spacing:0px;word-spacing:0px;text-anchor:start;fill:#000000;fill-opacity:1;stroke:none;font-family:Sans"
       id="flowRoot3082"
       xml:space="preserve"><flowRegion
         id="flowRegion3084"><rect
           style="font-size:20px;text-align:start;text-anchor:start"
           y="838.38019"
           x="368.57144"
           height="151.59377"
           width="263.98245"
           id="rect3086" /></flowRegion><flowPara
         id="flowPara3099">Open Standards allow you to use, sell, and extend <flowSpan
   style="font-weight:bold"
   id="flowSpan3261">powerful technology</flowSpan>, free of charge</flowPara></flowRoot>    <path
       sodipodi:type="arc"
       style="fill:#599117;fill-opacity:1;stroke:none"
       id="path3666"
       sodipodi:cx="1256"
       sodipodi:cy="370.09448"
       sodipodi:rx="13"
       sodipodi:ry="13"
       d="m 1252.2219,382.53336 a 13,13 0 1 1 2e-4,7e-5 L 1256,370.09448 z"
       transform="matrix(0.31748825,0,0,0.31748825,-363.80838,345.03411)"
       sodipodi:start="1.8656761"
       sodipodi:end="8.1488452" />
    <path
       sodipodi:end="8.1488452"
       sodipodi:start="1.8656761"
       transform="matrix(0.31748825,0,0,0.31748825,-363.80838,345.03411)"
       d="m 1252.2219,382.53336 a 13,13 0 1 1 2e-4,7e-5 L 1256,370.09448 z"
       sodipodi:ry="13"
       sodipodi:rx="13"
       sodipodi:cy="370.09448"
       sodipodi:cx="1256"
       id="path3771"
       style="fill:#599117;fill-opacity:1;stroke:none"
       sodipodi:type="arc" />
    <path
       sodipodi:type="arc"
       style="fill:#599117;fill-opacity:1;stroke:none"
       id="path3773"
       sodipodi:cx="1256"
       sodipodi:cy="370.09448"
       sodipodi:rx="13"
       sodipodi:ry="13"
       d="m 1252.2219,382.53336 a 13,13 0 1 1 2e-4,7e-5 L 1256,370.09448 z"
       transform="matrix(0.31748825,0,0,0.31748825,-17.692214,346.54883)"
       sodipodi:start="1.8656761"
       sodipodi:end="8.1488452" />
    <path
       sodipodi:end="8.1488452"
       sodipodi:start="1.8656761"
       transform="matrix(0.31748825,0,0,0.31748825,-9.1922142,500.53411)"
       d="m 1252.2219,382.53336 a 13,13 0 1 1 2e-4,7e-5 L 1256,370.09448 z"
       sodipodi:ry="13"
       sodipodi:rx="13"
       sodipodi:cy="370.09448"
       sodipodi:cx="1256"
       id="path3775"
       style="fill:#599117;fill-opacity:1;stroke:none"
       sodipodi:type="arc" />
    <path
       sodipodi:type="arc"
       style="fill:#599117;fill-opacity:1;stroke:none"
       id="path3777"
       sodipodi:cx="1256"
       sodipodi:cy="370.09448"
       sodipodi:rx="13"
       sodipodi:ry="13"
       d="m 1252.2219,382.53336 a 13,13 0 1 1 2e-4,7e-5 L 1256,370.09448 z"
       transform="matrix(0.31748825,0,0,0.31748825,-10.692214,697.53411)"
       sodipodi:start="1.8656761"
       sodipodi:end="8.1488452" />
    <flowRoot
       transform="translate(400.33398,-390.39551)"
       style="font-size:20px;font-style:normal;font-weight:normal;text-align:start;line-height:125%;letter-spacing:0px;word-spacing:0px;text-anchor:start;fill:#000000;fill-opacity:1;stroke:none;font-family:Sans"
       id="flowRoot3123"
       xml:space="preserve"><flowRegion
         id="flowRegion3125"><rect
           style="font-size:20px;text-align:start;text-anchor:start"
           y="838.38019"
           x="368.57144"
           height="193.94208"
           width="265.66422"
           id="rect3127" /></flowRegion><flowPara
         id="flowPara3140">Open Standards <flowSpan
   style="font-weight:bold;text-align:start;text-anchor:start;-inkscape-font-specification:Sans Bold"
   id="flowSpan3798">lower barriers</flowSpan> to entry into lucrative markets for new companies</flowPara></flowRoot>    <path
       sodipodi:end="8.1488452"
       sodipodi:start="1.8656761"
       transform="matrix(0.31748825,0,0,0.31748825,355.4685,342.65974)"
       d="m 1252.2219,382.53336 a 13,13 0 1 1 2e-4,7e-5 L 1256,370.09448 z"
       sodipodi:ry="13"
       sodipodi:rx="13"
       sodipodi:cy="370.09448"
       sodipodi:cx="1256"
       id="path3792"
       style="fill:#599117;fill-opacity:1;stroke:none"
       sodipodi:type="arc" />
    <flowRoot
       xml:space="preserve"
       id="flowRoot3150"
       style="font-size:20px;font-style:normal;font-weight:normal;text-align:start;line-height:125%;letter-spacing:0px;word-spacing:0px;text-anchor:start;fill:#000000;fill-opacity:1;stroke:none;font-family:Sans"
       transform="translate(400.40234,-205.7582)"><flowRegion
         id="flowRegion3152"><rect
           style="font-size:20px;text-align:start;text-anchor:start"
           id="rect3154"
           width="253.3568"
           height="183.28421"
           x="368.57144"
           y="838.38019" /></flowRegion><flowPara
         id="flowPara3162">Open Standards are increasingly requested by public sector buyers </flowPara></flowRoot>    <path
       sodipodi:type="arc"
       style="fill:#599117;fill-opacity:1;stroke:none"
       id="path3794"
       sodipodi:cx="1256"
       sodipodi:cy="370.09448"
       sodipodi:rx="13"
       sodipodi:ry="13"
       d="m 1252.2219,382.53336 a 13,13 0 1 1 2e-4,7e-5 L 1256,370.09448 z"
       transform="matrix(0.31748825,0,0,0.31748825,355.4685,528.17477)"
       sodipodi:start="1.8656761"
       sodipodi:end="8.1488452" />
    <flowRoot
       transform="translate(400.77344,-14.17412)"
       style="font-size:20px;font-style:normal;font-weight:normal;text-align:start;line-height:125%;letter-spacing:0px;word-spacing:0px;text-anchor:start;fill:#000000;fill-opacity:1;stroke:none;font-family:Sans"
       id="flowRoot3164"
       xml:space="preserve"><flowRegion
         id="flowRegion3166"><rect
           style="font-size:20px;text-align:start;text-anchor:start"
           y="838.38019"
           x="368.57144"
           height="142.40135"
           width="238.52481"
           id="rect3168" /></flowRegion><flowPara
         id="flowPara3176">Open Standards  <flowSpan
   style="font-weight:bold;text-align:start;text-anchor:start;-inkscape-font-specification:Sans Bold"
   id="flowSpan3802">competition<flowSpan
   style="font-weight:normal"
   id="flowSpan3275"> in products and features, not compatibility</flowSpan></flowSpan></flowPara></flowRoot>    <path
       sodipodi:end="8.1488452"
       sodipodi:start="1.8656761"
       transform="matrix(0.31748825,0,0,0.31748825,355.4685,720.78168)"
       d="m 1252.2219,382.53336 a 13,13 0 1 1 2e-4,7e-5 L 1256,370.09448 z"
       sodipodi:ry="13"
       sodipodi:rx="13"
       sodipodi:cy="370.09448"
       sodipodi:cx="1256"
       id="path3796"
       style="fill:#599117;fill-opacity:1;stroke:none"
       sodipodi:type="arc" />
    <text
       xml:space="preserve"
       style="font-size:28px;font-style:normal;font-weight:normal;fill:#000000;fill-opacity:1;stroke:none;font-family:Bitstream Vera Sans"
       x="869.34906"
       y="1032.7188"
       id="text3792"><tspan
         sodipodi:role="line"
         id="tspan3794"
         x="870.05701"
         y="1032.7188"
         style="font-size:28px;font-style:normal;font-variant:normal;font-weight:300;font-stretch:normal;text-align:center;line-height:125%;letter-spacing:1.4159174;writing-mode:lr-tb;text-anchor:middle;fill:#000000;fill-opacity:1;font-family:Yanone Kaffeesatz;-inkscape-font-specification:Yanone Kaffeesatz Light">DocumentFreedom.org</tspan></text>
    <flowRoot
       xml:space="preserve"
       id="flowRoot3277"
       style="fill:black;stroke:none;stroke-opacity:1;stroke-width:1px;stroke-linejoin:miter;stroke-linecap:butt;fill-opacity:1;font-family:Sans;font-style:normal;font-weight:normal;font-size:27px;line-height:125%;letter-spacing:0px;word-spacing:0px"><flowRegion
         id="flowRegion3279"><rect
           id="rect3281"
           width="1057.8318"
           height="83.438599"
           x="-108.89445"
           y="114.76945" /></flowRegion><flowPara
         id="flowPara3283"></flowPara></flowRoot>  </g>
  <g
     inkscape:groupmode="layer"
     id="layer2"
     inkscape:label="dove">
    <path
       inkscape:connector-curvature="0"
       id="path4190-8"
       style="fill:#599117;fill-opacity:1"
       d="m 1027.1976,704.85367 c 0,0 -0.7629,0.83617 -0.7629,0.83617 -1.3587,-4.00565 -3.8801,-6.70444 -7.1196,-8.36167 0,0 11.7042,-9.08806 11.7042,-9.08806 -3.1367,5.28552 -3.8358,12.91622 -3.8217,16.61356 z m 7.0861,-7.49942 c 0,0 -2.6206,0.37966 -4.0666,4.62407 -1.2377,3.63009 -2.3205,4.98179 -3.3319,6.0988 0,0 -14.4162,15.00754 -14.4162,15.00754 0,0 -2.4747,2.29488 -5.4596,3.14248 -4.0982,1.16461 -12.21306,2.47877 -14.73356,2.77975 -2.52,0.3019 -0.8016,1.7556 1.8888,3.35794 2.6903,1.60234 3.0914,2.3946 8.46406,-0.50864 5.3725,-2.90374 10.5176,-0.23787 21.5298,-3.4014 11.0119,-3.16352 13.2496,-11.97758 13.0488,-18.4501 -0.2008,-6.47298 0.6138,-7.88137 1.2616,-8.42983 0.6478,-0.54799 3.0708,-1.29953 3.0708,-1.29953 0,0 -2.8396,-0.92354 -2.8396,-0.92354 0,0 -0.344,-0.51321 -1.5383,-1.43446 -1.1947,-0.92079 -2.8781,-0.56308 -2.8781,-0.56308 z m -23.0769,23.5485 c -4.9651,-6.57451 -12.37146,-8.79483 -20.59186,-7.41434 0,0 14.17326,-16.0436 14.17326,-16.0436 8.2476,-1.29312 17.5421,0.72638 20.0799,9.59305 0,0 -13.3706,14.26056 -13.3706,14.26056 0,0 -0.1875,-0.25615 -0.2909,-0.39794 z"
       inkscape:export-filename="/home/ivan/Desktop/wiki.png"
       inkscape:export-xdpi="72.031548"
       inkscape:export-ydpi="72.031548" />
    <flowRoot
       xml:space="preserve"
       id="flowRoot3473"
       style="font-size:22px;font-style:normal;font-variant:normal;font-weight:normal;font-stretch:normal;text-align:end;line-height:100%;letter-spacing:-1.51999998px;word-spacing:0px;text-anchor:end;fill:#000000;fill-opacity:1;stroke:none;font-family:DejaVu Sans;-inkscape-font-specification:DejaVu Sans"><flowRegion
         id="flowRegion3475"><rect
           id="rect3477"
           width="322"
           height="699"
           x="13"
           y="22.094482" /></flowRegion><flowPara
         id="flowPara3479" /></flowRoot>    <flowRoot
       xml:space="preserve"
       id="flowRoot4285"
       style="font-size:22px;font-style:normal;font-variant:normal;font-weight:normal;font-stretch:normal;text-align:end;line-height:100%;letter-spacing:-1.51999998px;word-spacing:0px;text-anchor:end;fill:#000000;fill-opacity:1;stroke:none;font-family:DejaVu Sans;-inkscape-font-specification:DejaVu Sans"><flowRegion
         id="flowRegion4287"><rect
           id="rect4289"
           width="321.02649"
           height="643.46716"
           x="9.8994951"
           y="75.171471" /></flowRegion><flowPara
         id="flowPara4291" /></flowRoot>    <flowRoot
       xml:space="preserve"
       id="flowRoot4311"
       style="font-size:22px;font-style:normal;font-variant:normal;font-weight:normal;font-stretch:normal;text-align:end;line-height:100%;letter-spacing:-1.51999998px;word-spacing:0px;text-anchor:end;fill:#000000;fill-opacity:1;stroke:none;font-family:DejaVu Sans;-inkscape-font-specification:DejaVu Sans"><flowRegion
         id="flowRegion4313"><rect
           id="rect4315"
           width="323.85492"
           height="415.77878"
           x="11.313708"
           y="302.85986" /></flowRegion><flowPara
         id="flowPara4317" /></flowRoot>  </g>
</svg>
