<?xml version="1.0" encoding="UTF-8" standalone="no"?>
<!-- Created with Inkscape (http://www.inkscape.org/) -->

<svg
   xmlns:dc="http://purl.org/dc/elements/1.1/"
   xmlns:cc="http://creativecommons.org/ns#"
   xmlns:rdf="http://www.w3.org/1999/02/22-rdf-syntax-ns#"
   xmlns:svg="http://www.w3.org/2000/svg"
   xmlns="http://www.w3.org/2000/svg"
   xmlns:xlink="http://www.w3.org/1999/xlink"
   xmlns:sodipodi="http://sodipodi.sourceforge.net/DTD/sodipodi-0.dtd"
   xmlns:inkscape="http://www.inkscape.org/namespaces/inkscape"
   version="1.0"
   width="1280"
   height="720"
   id="svg2"
   inkscape:version="0.48.0 r9654"
   sodipodi:docname="DFD_wallpaper-2011.svg"
   inkscape:export-filename="/home/deneb/eventi/dfd2011/svg-2011/DFD_wallpaper-2011-1280x720.png"
   inkscape:export-xdpi="90"
   inkscape:export-ydpi="90">
  <metadata
     id="metadata30">
    <rdf:RDF>
      <cc:Work
         rdf:about="">
        <dc:format>image/svg+xml</dc:format>
        <dc:type
           rdf:resource="http://purl.org/dc/dcmitype/StillImage" />
        <dc:title></dc:title>
      </cc:Work>
    </rdf:RDF>
  </metadata>
  <sodipodi:namedview
     pagecolor="#ffffff"
     bordercolor="#666666"
     borderopacity="1"
     objecttolerance="10"
     gridtolerance="10"
     guidetolerance="10"
     inkscape:pageopacity="0"
     inkscape:pageshadow="2"
     inkscape:window-width="1024"
     inkscape:window-height="527"
     id="namedview28"
     showgrid="false"
     inkscape:zoom="0.31983554"
     inkscape:cx="663.9438"
     inkscape:cy="355.89036"
     inkscape:window-x="0"
     inkscape:window-y="24"
     inkscape:window-maximized="1"
     inkscape:current-layer="svg2" />
  <defs
     id="defs4">
    <inkscape:perspective
       sodipodi:type="inkscape:persp3d"
       inkscape:vp_x="0 : 526.18109 : 1"
       inkscape:vp_y="0 : 1000 : 0"
       inkscape:vp_z="744.09448 : 526.18109 : 1"
       inkscape:persp3d-origin="372.04724 : 350.78739 : 1"
       id="perspective32" />
    <linearGradient
       x1="63.805325"
       y1="204.80933"
       x2="63.369431"
       y2="169.65012"
       id="linearGradient7094"
       xlink:href="#linearGradient3161"
       gradientUnits="userSpaceOnUse"
       gradientTransform="translate(394.34913,-414.11768)" />
    <linearGradient
       x1="63.805325"
       y1="204.80933"
       x2="63.369431"
       y2="169.65012"
       id="linearGradient7092"
       xlink:href="#linearGradient3161"
       gradientUnits="userSpaceOnUse"
       gradientTransform="translate(394.34913,155.34583)" />
    <linearGradient
       id="linearGradient3161">
      <stop
         style="stop-color:#c3d9ff;stop-opacity:1"
         offset="0"
         id="stop3163" />
      <stop
         style="stop-color:#c3d9ff;stop-opacity:0"
         offset="1"
         id="stop3165" />
    </linearGradient>
    <linearGradient
       x1="63.805325"
       y1="204.80933"
       x2="63.369431"
       y2="169.65012"
       id="linearGradient2216"
       xlink:href="#linearGradient3161"
       gradientUnits="userSpaceOnUse"
       gradientTransform="matrix(2.0979442,0,0,2.0979442,-471.41354,-25.360228)" />
    <linearGradient
       x1="63.805325"
       y1="204.80933"
       x2="63.369431"
       y2="169.65012"
       id="linearGradient2218"
       xlink:href="#linearGradient3161"
       gradientUnits="userSpaceOnUse"
       gradientTransform="matrix(2.0979442,0,0,2.0979442,-471.41354,-517.52866)" />
    <inkscape:perspective
       id="perspective5092"
       inkscape:persp3d-origin="0.5 : 0.33333333 : 1"
       inkscape:vp_z="1 : 0.5 : 1"
       inkscape:vp_y="0 : 1000 : 0"
       inkscape:vp_x="0 : 0.5 : 1"
       sodipodi:type="inkscape:persp3d" />
    <inkscape:perspective
       id="perspective5092-4"
       inkscape:persp3d-origin="0.5 : 0.33333333 : 1"
       inkscape:vp_z="1 : 0.5 : 1"
       inkscape:vp_y="0 : 1000 : 0"
       inkscape:vp_x="0 : 0.5 : 1"
       sodipodi:type="inkscape:persp3d" />
    <linearGradient
       inkscape:collect="always"
       xlink:href="#linearGradient3161"
       id="linearGradient5715"
       gradientUnits="userSpaceOnUse"
       gradientTransform="matrix(2.0979442,0,0,2.0979442,-471.41354,-25.360228)"
       x1="63.805325"
       y1="204.80933"
       x2="63.369431"
       y2="169.65012" />
    <linearGradient
       inkscape:collect="always"
       xlink:href="#linearGradient3161"
       id="linearGradient5717"
       gradientUnits="userSpaceOnUse"
       gradientTransform="matrix(2.0979442,0,0,2.0979442,-471.41354,-517.52866)"
       x1="63.805325"
       y1="204.80933"
       x2="63.369431"
       y2="169.65012" />
    <inkscape:perspective
       id="perspective4813"
       inkscape:persp3d-origin="0.5 : 0.33333333 : 1"
       inkscape:vp_z="1 : 0.5 : 1"
       inkscape:vp_y="0 : 1000 : 0"
       inkscape:vp_x="0 : 0.5 : 1"
       sodipodi:type="inkscape:persp3d" />
    <radialGradient
       inkscape:collect="always"
       xlink:href="#linearGradient4352"
       id="radialGradient4767"
       gradientUnits="userSpaceOnUse"
       gradientTransform="matrix(2.71129,-3.690706,3.3628091,3.8962979,-3890.5027,-907.59261)"
       cx="313.43893"
       cy="663.65607"
       fx="313.43893"
       fy="663.65607"
       r="132.9715" />
    <linearGradient
       id="linearGradient4352">
      <stop
         style="stop-color:#ffff4f;stop-opacity:0.82745099;"
         offset="0"
         id="stop4354" />
      <stop
         style="stop-color:#42b30b;stop-opacity:0;"
         offset="1"
         id="stop4356" />
    </linearGradient>
    <filter
       id="filter3677"
       inkscape:label="Fuzzy Glow"
       inkscape:menu="Shadows and Glows"
       inkscape:menu-tooltip="Overlays a semi-transparent shifted copy to a blurred one"
       color-interpolation-filters="sRGB">
      <feOffset
         id="feOffset3679"
         dx="4"
         dy="4"
         result="result11"
         in="SourceGraphic" />
      <feGaussianBlur
         id="feGaussianBlur3681"
         stdDeviation="4"
         result="result8" />
      <feComposite
         id="feComposite3683"
         in2="result8"
         result="result9"
         in="SourceGraphic"
         operator="in" />
      <feBlend
         id="feBlend3685"
         in2="result8"
         in="result9"
         mode="darken" />
    </filter>
    <linearGradient
       inkscape:collect="always"
       xlink:href="#linearGradient4364"
       id="linearGradient4762"
       gradientUnits="userSpaceOnUse"
       gradientTransform="matrix(1.0260702,0,0,1,-1138.7912,-231.55694)"
       x1="248.9016"
       y1="319.79956"
       x2="287.28848"
       y2="526.40344" />
    <linearGradient
       id="linearGradient4364">
      <stop
         style="stop-color:#ffffff;stop-opacity:1;"
         offset="0"
         id="stop4366" />
      <stop
         style="stop-color:#42b30b;stop-opacity:0;"
         offset="1"
         id="stop4368" />
    </linearGradient>
    <linearGradient
       inkscape:collect="always"
       xlink:href="#linearGradient3161"
       id="linearGradient5052"
       gradientUnits="userSpaceOnUse"
       gradientTransform="matrix(2.0979442,0,0,2.0979442,-471.41354,-25.360228)"
       x1="63.805325"
       y1="204.80933"
       x2="63.369431"
       y2="169.65012" />
    <linearGradient
       inkscape:collect="always"
       xlink:href="#linearGradient3161"
       id="linearGradient5054"
       gradientUnits="userSpaceOnUse"
       gradientTransform="matrix(2.0979442,0,0,2.0979442,-471.41354,-517.52866)"
       x1="63.805325"
       y1="204.80933"
       x2="63.369431"
       y2="169.65012" />
    <linearGradient
       inkscape:collect="always"
       xlink:href="#linearGradient3161"
       id="linearGradient5062"
       gradientUnits="userSpaceOnUse"
       gradientTransform="matrix(2.0979442,0,0,2.0979442,-427.49372,-1203.8914)"
       x1="63.805325"
       y1="204.80933"
       x2="63.369431"
       y2="169.65012" />
    <linearGradient
       inkscape:collect="always"
       xlink:href="#linearGradient3161"
       id="linearGradient5065"
       gradientUnits="userSpaceOnUse"
       gradientTransform="matrix(2.0979442,0,0,2.0979442,-427.49372,661.00247)"
       x1="63.805325"
       y1="204.80933"
       x2="63.369431"
       y2="169.65012" />
    <inkscape:perspective
       id="perspective5075"
       inkscape:persp3d-origin="0.5 : 0.33333333 : 1"
       inkscape:vp_z="1 : 0.5 : 1"
       inkscape:vp_y="0 : 1000 : 0"
       inkscape:vp_x="0 : 0.5 : 1"
       sodipodi:type="inkscape:persp3d" />
    <radialGradient
       inkscape:collect="always"
       xlink:href="#linearGradient4352-8"
       id="radialGradient4767-0"
       gradientUnits="userSpaceOnUse"
       gradientTransform="matrix(2.71129,-3.690706,3.3628091,3.8962979,-3890.5027,-907.59261)"
       cx="313.43893"
       cy="663.65607"
       fx="313.43893"
       fy="663.65607"
       r="132.9715" />
    <linearGradient
       id="linearGradient4352-8">
      <stop
         style="stop-color:#ffff4f;stop-opacity:0.82745099;"
         offset="0"
         id="stop4354-5" />
      <stop
         style="stop-color:#42b30b;stop-opacity:0;"
         offset="1"
         id="stop4356-3" />
    </linearGradient>
    <filter
       id="filter3677-9"
       inkscape:label="Fuzzy Glow"
       inkscape:menu="Shadows and Glows"
       inkscape:menu-tooltip="Overlays a semi-transparent shifted copy to a blurred one"
       color-interpolation-filters="sRGB">
      <feOffset
         id="feOffset3679-4"
         dx="4"
         dy="4"
         result="result11"
         in="SourceGraphic" />
      <feGaussianBlur
         id="feGaussianBlur3681-1"
         stdDeviation="4"
         result="result8" />
      <feComposite
         id="feComposite3683-5"
         in2="result8"
         result="result9"
         in="SourceGraphic"
         operator="in" />
      <feBlend
         id="feBlend3685-4"
         in2="result8"
         in="result9"
         mode="darken" />
    </filter>
    <linearGradient
       inkscape:collect="always"
       xlink:href="#linearGradient4364-5"
       id="linearGradient4762-1"
       gradientUnits="userSpaceOnUse"
       gradientTransform="matrix(1.0260702,0,0,1,-1138.7912,-231.55694)"
       x1="248.9016"
       y1="319.79956"
       x2="287.28848"
       y2="526.40344" />
    <linearGradient
       id="linearGradient4364-5">
      <stop
         style="stop-color:#ffffff;stop-opacity:1;"
         offset="0"
         id="stop4366-5" />
      <stop
         style="stop-color:#42b30b;stop-opacity:0;"
         offset="1"
         id="stop4368-4" />
    </linearGradient>
    <inkscape:perspective
       id="perspective5169"
       inkscape:persp3d-origin="0.5 : 0.33333333 : 1"
       inkscape:vp_z="1 : 0.5 : 1"
       inkscape:vp_y="0 : 1000 : 0"
       inkscape:vp_x="0 : 0.5 : 1"
       sodipodi:type="inkscape:persp3d" />
    <radialGradient
       inkscape:collect="always"
       xlink:href="#linearGradient4352-0"
       id="radialGradient4767-9"
       gradientUnits="userSpaceOnUse"
       gradientTransform="matrix(2.71129,-3.690706,3.3628091,3.8962979,-3890.5027,-907.59261)"
       cx="313.43893"
       cy="663.65607"
       fx="313.43893"
       fy="663.65607"
       r="132.9715" />
    <linearGradient
       id="linearGradient4352-0">
      <stop
         style="stop-color:#ffff4f;stop-opacity:0.82745099;"
         offset="0"
         id="stop4354-8" />
      <stop
         style="stop-color:#42b30b;stop-opacity:0;"
         offset="1"
         id="stop4356-9" />
    </linearGradient>
    <filter
       id="filter3677-3"
       inkscape:label="Fuzzy Glow"
       inkscape:menu="Shadows and Glows"
       inkscape:menu-tooltip="Overlays a semi-transparent shifted copy to a blurred one"
       color-interpolation-filters="sRGB">
      <feOffset
         id="feOffset3679-1"
         dx="4"
         dy="4"
         result="result11"
         in="SourceGraphic" />
      <feGaussianBlur
         id="feGaussianBlur3681-4"
         stdDeviation="4"
         result="result8" />
      <feComposite
         id="feComposite3683-8"
         in2="result8"
         result="result9"
         in="SourceGraphic"
         operator="in" />
      <feBlend
         id="feBlend3685-9"
         in2="result8"
         in="result9"
         mode="darken" />
    </filter>
    <linearGradient
       inkscape:collect="always"
       xlink:href="#linearGradient4364-7"
       id="linearGradient4762-6"
       gradientUnits="userSpaceOnUse"
       gradientTransform="matrix(1.0260702,0,0,1,-1138.7912,-231.55694)"
       x1="248.9016"
       y1="319.79956"
       x2="287.28848"
       y2="526.40344" />
    <linearGradient
       id="linearGradient4364-7">
      <stop
         style="stop-color:#ffffff;stop-opacity:1;"
         offset="0"
         id="stop4366-7" />
      <stop
         style="stop-color:#42b30b;stop-opacity:0;"
         offset="1"
         id="stop4368-3" />
    </linearGradient>
    <linearGradient
       inkscape:collect="always"
       xlink:href="#linearGradient4364-7"
       id="linearGradient5299"
       gradientUnits="userSpaceOnUse"
       gradientTransform="matrix(4.0882047,0,0,3.9843324,-808.23432,-1585.8768)"
       x1="248.9016"
       y1="319.79956"
       x2="287.28848"
       y2="526.40344" />
    <radialGradient
       inkscape:collect="always"
       xlink:href="#linearGradient4352-0"
       id="radialGradient5304"
       gradientUnits="userSpaceOnUse"
       gradientTransform="matrix(13.128967,-8.5333566,16.283838,9.0087101,-14278.805,-2470.676)"
       cx="313.43893"
       cy="663.65607"
       fx="313.43893"
       fy="663.65607"
       r="132.9715" />
    <inkscape:perspective
       id="perspective5334"
       inkscape:persp3d-origin="0.5 : 0.33333333 : 1"
       inkscape:vp_z="1 : 0.5 : 1"
       inkscape:vp_y="0 : 1000 : 0"
       inkscape:vp_x="0 : 0.5 : 1"
       sodipodi:type="inkscape:persp3d" />
    <inkscape:perspective
       id="perspective4442"
       inkscape:persp3d-origin="0.5 : 0.33333333 : 1"
       inkscape:vp_z="1 : 0.5 : 1"
       inkscape:vp_y="0 : 1000 : 0"
       inkscape:vp_x="0 : 0.5 : 1"
       sodipodi:type="inkscape:persp3d" />
  </defs>
  <rect
     style="fill:#42b30b;fill-opacity:1;stroke:#000000;stroke-width:10.01268673;stroke-miterlimit:4;stroke-opacity:1;stroke-dasharray:none"
     id="rect4302-7"
     width="1270.6113"
     height="710.64484"
     x="5.4234104"
     y="4.5280681" />
  <rect
     style="fill:url(#radialGradient5304);fill-opacity:1;stroke:#000000;stroke-width:10.01727104;stroke-miterlimit:4;stroke-opacity:0.40528636;stroke-dasharray:none"
     id="rect4302-5"
     width="1273.2876"
     height="709.80096"
     x="6.5493517"
     y="5.8338022" />
  <g
     id="g5348"
     transform="translate(-336,-476)">
    <path
       d="m 1483.3106,916.35024 c 0,0 -5.8462,6.4078 -5.8462,6.4078 -10.4118,-30.6946 -29.733,-51.37547 -54.5578,-64.07381 0,0 89.6893,-69.64409 89.6893,-69.64409 -24.0366,40.5055 -29.394,98.9781 -29.2853,127.3101 z m 54.3,-57.46862 c 0,0 -20.0816,2.92048 -31.1618,35.43292 -9.4846,27.8217 -17.7821,38.1777 -25.5325,46.7359 0,0 -110.471,115.00356 -110.471,115.00356 0,0 -18.9636,17.5835 -41.8369,24.0814 -31.4043,8.9248 -93.589,18.9955 -112.9036,21.3025 -19.311,2.3089 -6.1426,13.4545 14.4741,25.7312 20.615,12.2786 23.689,18.3495 64.8601,-3.8987 41.1695,-22.2501 80.5961,-1.822 164.9829,-26.0664 84.3843,-24.2425 101.5316,-91.7806 99.9924,-141.38126 -1.5392,-49.6035 4.7039,-60.3963 9.6681,-64.5988 4.9642,-4.2004 23.5309,-9.9589 23.5309,-9.9589 0,0 -21.7594,-7.07541 -21.7594,-7.07541 0,0 -2.6347,-3.93525 -11.7879,-10.99226 -9.155,-7.05682 -22.0553,-4.31575 -22.0553,-4.31575 z m -176.8371,180.45558 c -38.048,-50.38316 -94.8034,-67.39826 -157.7965,-56.82116 0,0 108.6099,-122.93948 108.6099,-122.93948 63.2016,-9.90786 134.4255,5.56475 153.8723,73.51358 0,0 -102.4584,109.27696 -102.4584,109.27696 0,0 -1.4392,-1.9869 -2.2273,-3.0299 z"
       style="fill:#ffffff;fill-opacity:0.2962963"
       id="path4190" />
    <path
       d="m 1408.1269,786.21006 c 0,0 -9.7805,10.72007 -9.7805,10.72007 -17.4185,-51.35134 -49.7425,-85.94982 -91.2736,-107.19381 0,0 150.0479,-116.51264 150.0479,-116.51264 -40.2127,67.7646 -49.1754,165.58768 -48.9938,212.98638 z m 90.8426,-96.14349 c 0,0 -33.5959,4.88588 -52.1327,59.27825 -15.8676,46.54503 -29.7489,63.87026 -42.7154,78.18797 0,0 -184.8148,192.39771 -184.8148,192.39771 0,0 -31.7257,29.4169 -69.9922,40.2877 -52.5384,14.9308 -156.57178,31.7789 -188.88458,35.6384 -32.3069,3.8628 -10.2764,22.5091 24.2147,43.0476 34.48838,20.5417 39.63108,30.6982 108.50928,-6.5224 68.8754,-37.2238 134.835,-3.0482 276.0119,-43.6084 141.1728,-40.5569 169.8595,-153.54636 167.2844,-236.52699 -2.5752,-82.98526 7.8696,-101.04136 16.1745,-108.07198 8.3051,-7.02711 39.3666,-16.66105 39.3666,-16.66105 0,0 -36.4029,-11.83695 -36.4029,-11.83695 0,0 -4.4078,-6.58354 -19.7209,-18.38972 -15.3162,-11.80589 -36.8979,-7.22014 -36.8979,-7.22014 z m -295.8438,301.89727 c -63.6532,-84.2897 -158.6034,-112.75541 -263.98908,-95.0602 0,0 181.70148,-205.67447 181.70148,-205.67447 105.7344,-16.57557 224.8899,9.30967 257.424,122.98618 0,0 -171.41,182.81739 -171.41,182.81739 0,0 -2.4077,-3.3239 -3.7264,-5.0689 z"
       style="fill:#ffffff;fill-opacity:0.07936509"
       id="path2172" />
  </g>
  <path
     d="m 231.59792,613.8903 c -1.81594,0 -2.22864,0.5778 -2.22864,1.5683 l 0,56.2112 10.31777,0 c 10.15271,0 16.09574,-7.6764 16.09574,-32.5216 0,-19.3974 -5.36524,-25.2579 -16.17827,-25.2579 l -8.0066,0 m 16.50845,25.2579 c 0,22.8642 -4.04458,26.1659 -8.33677,26.1659 l -3.71441,-0.083 0,-45.1506 3.79695,0 c 5.53032,0 8.25423,3.797 8.25423,19.0673 m 11.5327,11.886 c 0,18.572 4.45729,22.0388 13.12423,22.0388 8.66692,0 13.37184,-6.9335 13.37184,-22.2864 0,-16.7561 -4.20966,-21.5435 -12.8766,-21.5435 -8.58439,0 -13.61947,6.6859 -13.61947,21.7911 m 7.26373,0.1651 c 0,-12.8766 2.55882,-16.1783 6.19068,-16.1783 3.87947,0 5.77794,2.7239 5.77794,15.8482 0,12.8765 -2.55882,16.5084 -6.10812,16.5084 -3.79694,0 -5.8605,-2.5588 -5.8605,-16.1783 m 45.49239,-19.1498 c 0,-1.2381 -3.46677,-2.889 -6.85101,-2.889 -6.851,0 -14.8576,2.6414 -14.8576,22.7817 0,18.9022 4.4573,21.0483 13.70201,21.0483 4.04457,0 7.84151,-2.1461 7.84151,-3.797 0,-0.9905 -0.24762,-2.6413 -0.66033,-4.1271 -1.5683,0.9905 -4.20965,1.8985 -6.4383,1.8985 -5.11762,0 -7.42879,-1.7334 -7.42879,-15.0227 0,-14.6925 4.2922,-16.8386 8.4193,-16.8386 2.31118,0 4.12711,0.7429 5.53032,1.4857 0.49527,-1.4032 0.74289,-3.4667 0.74289,-4.5398 m 29.83904,38.2171 c -3.1366,1.7334 -7.84153,2.6413 -12.2988,2.6413 -10.89557,0 -12.38134,-5.035 -12.38134,-15.1877 l 0,-26.0009 c 0,-1.3206 0,-1.3206 6.93354,-1.3206 l 0,27.6516 c 0,6.5209 0.82544,8.9971 5.20018,8.9971 1.81591,0 4.12711,-0.4127 5.8605,-1.5683 l 0,-33.7598 c 0,-1.3206 -0.16509,-1.3206 6.68592,-1.3206 l 0,39.8679 m 7.72803,-38.3822 c 3.63185,-1.7334 7.92406,-2.7239 12.46386,-2.7239 3.3842,0 5.6954,0.908 7.2637,2.5588 2.8065,-1.6508 6.5209,-2.5588 9.4099,-2.5588 9.5749,0 10.1526,3.797 10.1526,15.1878 l 0,25.9183 c 0,1.4032 0.2477,1.4032 -6.6859,1.4032 l 0,-27.6517 c 0,-6.7684 -0.2476,-8.9145 -4.2922,-8.9145 -1.7334,0 -3.4667,0.4952 -5.2827,1.8984 l 0,8.8321 0,2.6413 0,21.7912 0,0.5778 c -0.082,0.1651 -0.082,0.4127 -0.3301,0.4952 0,0.082 -0.083,0.082 -0.1651,0.082 -0.4127,0.1651 -1.1556,0.2477 -2.5588,0.2477 l -3.6319,0 0,-27.6517 c 0,-6.3557 0,-8.9971 -4.0446,-8.9971 -1.8159,0 -3.71438,0.4127 -5.61285,1.5683 l 0,33.6772 c 0,1.4033 0.16509,1.4033 -6.68591,1.4033 l 0,-39.7854 m 59.80186,-2.7239 c -7.3463,0 -14.61,2.5588 -14.61,24.0198 0,16.8386 5.5304,19.7276 13.2068,19.7276 6.1907,0 11.3908,-1.981 11.3908,-3.1366 0,-1.8159 -0.1651,-4.7049 -0.5778,-5.943 -2.8064,1.5682 -6.1081,2.5588 -10.0701,2.5588 -4.4573,0 -6.7685,-1.4858 -7.0161,-11.4734 3.962,0 11.5559,-0.1651 17.2513,-1.3207 0.6604,-2.9715 0.908,-7.1812 0.908,-10.8956 0,-8.832 -3.5493,-13.5369 -10.4829,-13.5369 m -0.7429,5.8605 c 3.5493,0 4.6224,2.4763 4.7049,8.4193 0,1.5683 -0.082,3.6319 -0.4127,5.1176 -2.889,0.8255 -8.0066,0.9905 -11.2257,0.908 0.4952,-11.4734 3.5493,-14.4449 6.9335,-14.4449 m 17.1134,-3.1366 c 3.2191,-1.4858 9.1622,-2.7239 13.6194,-2.7239 9.9876,0 11.0607,3.7969 11.0607,15.1878 l 0,25.9182 c 0,1.4033 0.082,1.4033 -6.9335,1.4033 l 0,-27.6517 c 0,-6.5208 -0.4953,-8.9971 -4.87,-8.9971 -1.816,0 -4.3748,0.4127 -6.1907,1.5683 l 0,33.6772 c 0,1.4033 0.1651,1.4033 -6.6859,1.4033 l 0,-39.7854 m 35.0649,28.0644 c 0,7.4288 10e-5,13.0416 7.8416,13.0416 3.2191,0 7.0986,-0.6603 7.0986,-2.6413 0,-1.6508 -0.2476,-3.4668 -0.4953,-4.3748 -1.7334,0.7429 -2.4762,1.2382 -4.7874,1.2382 -2.9715,0 -2.9715,-2.9715 -2.9715,-6.5209 l 0,-24.515 7.0986,0 c 1.3207,0 1.3207,-0.5778 1.3207,-5.778 l -8.4193,0 0,-14.8576 c -5.4478,0 -6.686,0 -6.686,2.3112 l 0,12.5464 -4.2096,0 c -1.4032,0 -1.4858,0.6604 -1.4858,5.778 l 5.6954,0 0,23.7722 m 25.9196,11.721 c 1.4032,0 1.3207,-1.4033 1.3207,-1.4033 l 0,-26.9913 11.1432,0 c 1.2381,0 1.2381,-1.073 1.2381,-6.1081 l -12.3813,0 0,-17.4989 13.1242,0 c 1.3207,0 1.3207,-0.4128 1.3207,-5.778 l -19.8102,0 c -1.3206,0 -1.4032,1.3207 -1.4032,1.3207 l 0,56.4589 5.4478,0 m 18.9783,-38.7949 c 3.7969,-2.7239 7.1812,-3.7144 11.2257,-3.7144 4.2097,0 5.778,0.9905 5.778,3.0541 0,1.1556 -0.1651,2.9715 -0.7429,4.3747 -1.2381,-0.6603 -2.3937,-0.9905 -3.962,-0.9905 -1.816,0 -3.8795,0.6603 -5.4478,2.2286 l -0.082,32.4391 c 0,1.4033 0.082,1.4033 -6.7685,1.4033 l 0,-38.7949 m 33.4451,-3.7144 c -7.3462,0 -14.61,2.5588 -14.61,24.0198 0,16.8386 5.5304,19.7276 13.2068,19.7276 6.1907,0 11.3908,-1.981 11.3908,-3.1366 0,-1.8159 -0.165,-4.7049 -0.5777,-5.943 -2.8065,1.5682 -6.1082,2.5588 -10.0702,2.5588 -4.4573,0 -6.7685,-1.4858 -7.0161,-11.4734 3.962,0 11.5559,-0.1651 17.2513,-1.3207 0.6604,-2.9715 0.908,-7.1812 0.908,-10.8956 0,-8.832 -3.5493,-13.5369 -10.4829,-13.5369 m -0.7429,5.8605 c 3.5494,0 4.6224,2.4763 4.705,8.4193 0,1.5683 -0.082,3.6319 -0.4128,5.1176 -2.8889,0.8255 -8.0065,0.9905 -11.2257,0.908 0.4952,-11.4734 3.5493,-14.4449 6.9335,-14.4449 m 29.7617,-5.8605 c -7.3463,0 -14.61,2.5588 -14.61,24.0198 0,16.8386 5.5304,19.7276 13.2068,19.7276 6.1906,0 11.3908,-1.981 11.3908,-3.1366 0,-1.8159 -0.1651,-4.7049 -0.5778,-5.943 -2.8064,1.5682 -6.1081,2.5588 -10.0701,2.5588 -4.4573,0 -6.7685,-1.4858 -7.0161,-11.4734 3.962,0 11.5559,-0.1651 17.2513,-1.3207 0.6603,-2.9715 0.908,-7.1812 0.908,-10.8956 0,-8.832 -3.5494,-13.5369 -10.4829,-13.5369 m -0.7429,5.8605 c 3.5493,0 4.6224,2.4763 4.7049,8.4193 0,1.5683 -0.083,3.6319 -0.4127,5.1176 -2.889,0.8255 -8.0066,0.9905 -11.2257,0.908 0.4952,-11.4734 3.5493,-14.4449 6.9335,-14.4449 m 34.6123,-20.9657 c 0,-3.0541 1.2381,-3.0541 6.6859,-3.0541 l 0,59.4304 c -2.8064,1.6509 -6.6859,2.4763 -11.8035,2.4763 -7.8415,0 -13.4544,-2.4763 -13.4544,-20.3879 0,-16.3434 5.6129,-23.3595 12.7115,-23.3595 2.5588,0 4.4573,0.6603 5.8605,1.6509 l 0,-16.7561 m 0,22.0387 c -1.073,-0.8254 -2.0635,-1.073 -3.797,-1.073 -3.6318,0 -7.2637,3.2192 -7.2637,16.7561 0,13.2893 2.3112,15.1052 6.1907,15.1052 1.8159,0 3.5493,-0.3302 4.87,-1.2381 l 0,-29.5502 m 12.6883,14.9402 c 0,18.572 4.4573,22.0388 13.1242,22.0388 8.667,0 13.3719,-6.9336 13.3719,-22.2864 0,-16.7561 -4.2097,-21.5436 -12.8766,-21.5436 -8.5844,0 -13.6195,6.686 -13.6195,21.7912 m 7.2637,0.1651 c 0,-12.8766 2.5588,-16.1783 6.1907,-16.1783 3.8795,0 5.778,2.7239 5.778,15.8481 0,12.8766 -2.5588,16.5085 -6.1082,16.5085 -3.7969,0 -5.8605,-2.5588 -5.8605,-16.1783 m 25.0219,-19.3149 c 3.6319,-1.7334 7.9241,-2.7239 12.4639,-2.7239 3.3842,0 5.6954,0.908 7.2637,2.5588 2.8065,-1.6508 6.5209,-2.5588 9.4098,-2.5588 9.5749,0 10.1527,3.7969 10.1527,15.1878 l 0,25.9182 c 0,1.4033 0.2477,1.4033 -6.6859,1.4033 l 0,-27.6517 c 0,-6.7685 -0.2476,-8.9146 -4.2922,-8.9146 -1.7334,0 -3.4667,0.4953 -5.2827,1.8985 l 0,8.832 0,2.6414 0,21.7911 0,0.5778 c -0.082,0.1651 -0.082,0.4128 -0.3302,0.4953 0,0.082 -0.082,0.082 -0.165,0.082 -0.4128,0.1651 -1.1556,0.2476 -2.5588,0.2476 l -3.6319,0 0,-27.6516 c 0,-6.3558 0,-8.9971 -4.0446,-8.9971 -1.8159,0 -3.7144,0.4127 -5.6128,1.5683 l 0,33.6772 c 0,1.4032 0.165,1.4032 -6.686,1.4032 l 0,-39.7853 m 48.4936,-17.9942 c -1.8159,0 -2.2286,0.5778 -2.2286,1.5683 l 0,56.2112 10.3178,0 c 10.1527,0 16.0957,-7.6764 16.0957,-32.5216 0,-19.3974 -5.3653,-25.2579 -16.1783,-25.2579 l -8.0066,0 m 16.5085,25.2579 c 0,22.8642 -4.0446,26.1659 -8.3368,26.1659 l -3.7144,-0.083 0,-45.1506 3.797,0 c 5.5303,0 8.2542,3.797 8.2542,19.0672 m 12.0279,-5.8605 c 0,-0.9079 0.1651,-1.7334 0.7429,-2.1461 1.2381,-0.9079 6.7685,-1.981 14.4449,-1.981 5.3652,0 8.5018,2.6414 8.5018,10.0702 l 0,4.7874 c 0,14.4449 -0.4952,26.1659 -0.4952,26.1659 -2.2286,1.4032 -6.1081,2.7239 -11.4734,2.7239 -6.0256,0.082 -11.8035,-0.4127 -11.8035,-12.9591 0,-11.4734 5.4478,-13.5369 10.7305,-13.5369 2.0635,0 4.6223,0.2476 6.2732,1.073 l 0,-6.9335 c 0,-3.8795 -1.8159,-4.87 -4.3748,-4.87 -3.7143,0 -9.0796,0.7428 -11.6384,1.8984 -0.8254,-1.4032 -0.908,-3.7144 -0.908,-4.2922 m 16.9212,18.9022 c -1.0731,-0.5778 -2.7239,-0.7429 -3.8795,-0.7429 -3.3017,0 -6.1081,1.1556 -6.1081,8.4193 0,7.0987 2.0635,7.4288 5.2827,7.4288 1.6508,0 3.7144,-0.4952 4.4573,-1.3206 0,0 0.2476,-7.8415 0.2476,-13.7846 m 11.1187,-19.9752 c -0.4953,-1.816 -0.4953,-1.816 6.5208,-1.816 l 4.5399,19.6451 c 1.4032,6.6034 2.1461,13.6195 2.1461,13.6195 0,0 0.6603,-6.9336 1.8984,-13.702 l 3.7144,-17.5815 c 0.4127,-1.9811 0.4127,-1.9811 7.2637,-1.9811 l -10.1526,43.4998 c -2.4763,10.4829 -5.2828,13.2893 -10.5655,13.2893 -5.6128,0 -7.5113,-1.4032 -7.5113,-3.1366 0,-1.2381 0.4127,-2.9715 0.9905,-3.8795 1.1556,0.7429 3.3842,1.3207 5.5303,1.3207 2.3112,0 4.2922,-1.7334 5.5304,-8.5018 l -9.9051,-40.7759"
     style="font-size:39.34436035px;font-style:normal;font-weight:normal;fill:#ffffff;fill-opacity:1;stroke:none;font-family:Bitstream Vera Sans"
     id="text4186" />
  <g
     transform="matrix(0.66349784,0,0,0.66349784,662.08842,367.16119)"
     id="g4792-9">
    <rect
       y="158.55865"
       x="-945.3526"
       height="316.88666"
       width="272.84488"
       id="rect4302-8"
       style="fill:#42b30b;fill-opacity:1;stroke:#000000;stroke-width:3.09833145;stroke-miterlimit:4;stroke-opacity:1;stroke-dasharray:none" />
    <rect
       y="163.50644"
       x="-940.40479"
       height="306.99124"
       width="262.94925"
       id="rect4302-5-3"
       style="fill:url(#radialGradient4767-0);fill-opacity:1;stroke:#000000;stroke-width:2.99375963;stroke-miterlimit:4;stroke-opacity:0.40528636;stroke-dasharray:none" />
    <text
       transform="matrix(1.0448642,0,0,0.85298961,-1113.516,-164.77468)"
       sodipodi:linespacing="125%"
       id="text2864-8"
       y="721.34418"
       x="181.00058"
       style="font-size:189.40989685px;font-style:italic;font-variant:normal;font-weight:bold;font-stretch:normal;text-align:start;line-height:125%;writing-mode:lr-tb;text-anchor:start;fill:#000000;fill-opacity:1;stroke:#ffffff;stroke-width:2;stroke-miterlimit:4;stroke-opacity:1;stroke-dasharray:none;filter:url(#filter3677-9);font-family:Yanone Kaffeesatz;-inkscape-font-specification:Yanone Kaffeesatz Bold Italic"
       xml:space="preserve"><tspan
         style="font-size:189.40989685px;font-style:italic;font-variant:normal;font-weight:bold;font-stretch:normal;text-align:start;line-height:125%;writing-mode:lr-tb;text-anchor:start;fill:#000000;fill-opacity:1;stroke:#ffffff;stroke-width:2;stroke-miterlimit:4;stroke-opacity:1;stroke-dasharray:none;font-family:Yanone Kaffeesatz;-inkscape-font-specification:Yanone Kaffeesatz Bold Italic"
         y="721.34418"
         x="181.00058"
         id="tspan2866-52"
         sodipodi:role="line">DFD</tspan></text>
    <path
       sodipodi:nodetypes="ccscc"
       id="path4362-2"
       d="m -934.18856,277.74722 c 0,-45.57736 1.45109,-70.08681 1.45109,-108.89443 77.09489,0 185.25367,0 237.97753,0 53.23712,0 -110.15658,29.47217 -150.91258,46.66903 -53.17785,4.2728 -66.62654,7.21904 -88.51604,62.2254 z"
       style="fill:url(#linearGradient4762-1);fill-opacity:1;stroke:none" />
    <path
       inkscape:export-ydpi="72.031548"
       inkscape:export-xdpi="72.031548"
       inkscape:export-filename="/home/ivan/Desktop/wiki.png"
       d="m -719.33161,229.20329 c 0,0 -1.5047,1.64926 -1.5047,1.64926 -2.67979,-7.9003 -7.65278,-13.22321 -14.04229,-16.49157 0,0 23.08459,-17.92523 23.08459,-17.92523 -6.18663,10.42545 -7.56556,25.47535 -7.5376,32.76754 z m 13.97597,-14.79149 c 0,0 -5.16867,0.75168 -8.02052,9.11984 -2.44119,7.16087 -4.57681,9.82633 -6.57167,12.02908 0,0 -28.43344,29.60004 -28.43344,29.60004 0,0 -4.88091,4.52572 -10.76815,6.19818 -8.08294,2.29708 -24.08828,4.88912 -29.05954,5.48291 -4.97036,0.59427 -1.58101,3.46298 3.72539,6.62279 5.30597,3.1603 6.09717,4.72286 16.69395,-1.00346 10.59635,-5.72682 20.74413,-0.46896 42.4639,-6.70907 21.71917,-6.23962 26.13258,-23.62284 25.7364,-36.38925 -0.39617,-12.76712 1.21073,-15.54502 2.48842,-16.62667 1.27771,-1.0811 6.05647,-2.56327 6.05647,-2.56327 0,0 -5.60053,-1.8211 -5.60053,-1.8211 0,0 -0.67811,-1.01286 -3.03401,-2.82922 -2.35635,-1.81631 -5.67667,-1.1108 -5.67667,-1.1108 z m -45.515,46.44633 c -9.79293,-12.96781 -24.40085,-17.34721 -40.61425,-14.62484 0,0 27.95445,-31.64263 27.95445,-31.64263 16.26705,-2.55012 34.5989,1.43228 39.60419,18.92118 0,0 -26.3711,28.12613 -26.3711,28.12613 0,0 -0.37044,-0.51138 -0.57329,-0.77984 z"
       style="fill:#ffffff;fill-opacity:1"
       id="path4190-8-2" />
    <path
       inkscape:export-ydpi="72.031548"
       inkscape:export-xdpi="72.031548"
       inkscape:export-filename="/home/ivan/Desktop/wiki.png"
       d="m -819.01733,274.86695 c 0,0 -1.18565,1.29955 -1.18565,1.29955 -2.11156,-6.22511 -6.03007,-10.41934 -11.06474,-12.99467 0,0 18.1897,-14.12435 18.1897,-14.12435 -4.87481,8.21483 -5.96135,20.07353 -5.93931,25.81947 z m 11.01248,-11.65508 c 0,0 -4.0727,0.59229 -6.31984,7.18606 -1.92355,5.64246 -3.60633,7.74274 -5.1782,9.47841 0,0 -22.40437,23.32361 -22.40437,23.32361 0,0 -3.84596,3.56608 -8.48487,4.8839 -6.36902,1.81001 -18.98056,3.85243 -22.89771,4.32031 -3.91644,0.46826 -1.24577,2.72869 2.93545,5.21848 4.18089,2.49019 4.80432,3.72142 13.15414,-0.79068 8.34949,-4.5125 16.34553,-0.36952 33.4598,-5.28647 17.11381,-4.91656 20.59139,-18.61382 20.27922,-28.67322 -0.31216,-10.05996 0.95401,-12.24883 1.96077,-13.10113 1.00679,-0.85186 4.77225,-2.01975 4.77225,-2.01975 0,0 -4.41299,-1.43495 -4.41299,-1.43495 0,0 -0.53432,-0.79809 -2.39067,-2.22931 -1.85671,-1.43117 -4.47298,-0.87526 -4.47298,-0.87526 z m -35.86393,36.59778 c -7.71644,-10.21809 -19.22687,-13.66888 -32.00236,-11.52377 0,0 22.02695,-24.93308 22.02695,-24.93308 12.81777,-2.00938 27.26251,1.12858 31.20647,14.90911 0,0 -20.77933,22.16222 -20.77933,22.16222 0,0 -0.2919,-0.40294 -0.45173,-0.61448 z"
       style="fill:#ffffff;fill-opacity:1"
       id="path4190-1-7" />
    <path
       inkscape:export-ydpi="72.031548"
       inkscape:export-xdpi="72.031548"
       inkscape:export-filename="/home/ivan/Desktop/wiki.png"
       d="m -807.49064,210.62325 c 0,0 -1.07929,1.18297 -1.07929,1.18297 -1.92216,-5.66671 -5.48917,-9.48471 -10.07223,-11.82904 0,0 16.55807,-12.85738 16.55807,-12.85738 -4.43753,7.47796 -5.42661,18.27292 -5.40655,23.50345 z m 10.02465,-10.6096 c 0,0 -3.70737,0.53915 -5.75294,6.54145 -1.75101,5.13633 -3.28285,7.04821 -4.71371,8.62819 0,0 -20.39469,21.23146 -20.39469,21.23146 0,0 -3.50097,3.2462 -7.72375,4.44582 -5.79772,1.64764 -17.27801,3.50686 -20.84378,3.93277 -3.56513,0.42626 -1.13403,2.48392 2.67214,4.75038 3.80585,2.26682 4.37336,3.38761 11.97421,-0.71976 7.60053,-4.10772 14.87931,-0.33637 30.45842,-4.81227 15.57869,-4.47554 18.74433,-16.94414 18.46016,-26.10121 -0.28417,-9.15757 0.86843,-11.1501 1.78489,-11.92594 0.91647,-0.77545 4.34417,-1.83858 4.34417,-1.83858 0,0 -4.01714,-1.30623 -4.01714,-1.30623 0,0 -0.48639,-0.72651 -2.17623,-2.02934 -1.69015,-1.3028 -4.07175,-0.79674 -4.07175,-0.79674 z m -32.64691,33.31492 c -7.02425,-9.30153 -17.5022,-12.44277 -29.13172,-10.49008 0,0 20.05113,-22.69656 20.05113,-22.69656 11.66799,-1.82915 24.81703,1.02734 28.40721,13.57175 0,0 -18.91541,20.17425 -18.91541,20.17425 0,0 -0.26571,-0.3668 -0.41121,-0.55936 z"
       style="fill:#ffffff;fill-opacity:1"
       id="path4190-3-0" />
    <path
       inkscape:export-ydpi="72.031548"
       inkscape:export-xdpi="72.031548"
       inkscape:export-filename="/home/ivan/Desktop/wiki.png"
       d="m -887.53133,237.71875 c 0,0 -0.86519,0.94831 -0.86519,0.94831 -1.54087,-4.54263 -4.40031,-7.60327 -8.07425,-9.48256 0,0 13.27352,-10.30692 13.27352,-10.30692 -3.55728,5.99459 -4.35016,14.6482 -4.33408,18.84117 z m 8.03611,-8.50502 c 0,0 -2.97196,0.4322 -4.61176,5.24385 -1.40367,4.11746 -2.63164,5.65009 -3.77867,6.91666 0,0 -16.34908,17.01987 -16.34908,17.01987 0,0 -2.8065,2.60226 -6.19163,3.56392 -4.64765,1.3208 -13.85064,2.81122 -16.70908,3.15264 -2.85793,0.34171 -0.90908,1.9912 2.14208,3.80807 3.0509,1.81716 3.50583,2.71563 9.59893,-0.57698 6.09284,-3.29289 11.92777,-0.26965 24.41652,-3.85768 12.48841,-3.58775 15.0261,-13.58301 14.79829,-20.92363 -0.2278,-7.34102 0.69617,-8.93831 1.43083,-9.56025 0.73468,-0.62162 3.48244,-1.47386 3.48244,-1.47386 0,0 -3.22028,-1.04712 -3.22028,-1.04712 0,0 -0.3899,-0.5824 -1.74454,-1.62679 -1.35488,-1.04437 -3.26405,-0.6387 -3.26405,-0.6387 z m -26.17089,26.70639 c -5.63088,-7.45643 -14.03036,-9.97455 -23.35298,-8.40921 0,0 16.07367,-18.19434 16.07367,-18.19434 9.35346,-1.46631 19.89418,0.82355 22.77219,10.87958 0,0 -15.16324,16.17237 -15.16324,16.17237 0,0 -0.213,-0.29404 -0.32964,-0.4484 z"
       style="fill:#ffffff;fill-opacity:1"
       id="path4190-3-4-3" />
    <text
       transform="scale(1.1067717,0.9035287)"
       sodipodi:linespacing="125%"
       id="text2864-5-4"
       y="498.62766"
       x="-835.21741"
       style="font-size:178.81521606px;font-style:italic;font-variant:normal;font-weight:bold;font-stretch:normal;text-align:start;line-height:125%;writing-mode:lr-tb;text-anchor:start;fill:#ffffff;fill-opacity:1;stroke:none;font-family:Yanone Kaffeesatz;-inkscape-font-specification:Yanone Kaffeesatz Bold Italic"
       xml:space="preserve"><tspan
         style="font-size:178.81521606px;font-style:italic;font-variant:normal;font-weight:bold;font-stretch:normal;text-align:start;line-height:125%;writing-mode:lr-tb;text-anchor:start;fill:#ffffff;fill-opacity:1;stroke:none;font-family:Yanone Kaffeesatz;-inkscape-font-specification:Yanone Kaffeesatz Bold Italic"
         y="498.62766"
         x="-835.21741"
         id="tspan2866-5-6"
         sodipodi:role="line">DFD</tspan></text>
  </g>
  <path
     style="fill:url(#linearGradient5299);fill-opacity:1;stroke:none"
     d="m 6.970594,443.36023 c 0,-181.59535 5.781625,-279.24914 5.781625,-433.8716 307.171671,0 738.112181,0 948.181571,0 212.11441,0 -438.90044,117.42692 -601.28589,185.94493 C 147.76969,212.45781 94.18564,224.19661 6.970594,443.36023 z"
     id="path4362"
     sodipodi:nodetypes="ccscc" />
</svg>
